<?xml version="1.0" encoding="utf-8"?>
<!-- Generator: Adobe Illustrator 21.0.2, SVG Export Plug-In . SVG Version: 6.00 Build 0)  -->
<svg version="1.1" id="Layer_1" xmlns="http://www.w3.org/2000/svg" xmlns:xlink="http://www.w3.org/1999/xlink" x="0px" y="0px"
	 width="80" height="60" viewBox="0 0 58.8 70.2" style="enable-background:new 0 0 58.8 70.2;" xml:space="preserve">
<style type="text/css">
	.st0{fill:#f7931d;}
</style>
<g transform="translate(0,-952.36216)">
	<path class="st0" d="M29.6,952.4c-0.5,0-1.1,0.3-1.4,0.7c-3,4.4-12.5,8.1-23.4,8.1c0,0,0,0-0.1,0c-0.1,0-0.1,0-0.2,0
		c-0.8,0-1.5,0.5-1.6,1.3c0,0-1.6,7.4-2.5,16.4c-0.8,9-1,19.4,2.6,26.2c2.7,5.1,9.1,9.2,14.9,12.3c5.3,2.9,9.7,4.6,10.4,4.9
		c0.3,0.2,0.7,0.4,1.1,0.3c0.4,0,0.8-0.1,1.1-0.4c0,0,0,0,0,0c0.7-0.3,5.1-2,10.3-4.9c5.7-3.1,12.1-7.2,14.9-12.3
		c3.6-6.8,3.5-17.3,2.6-26.2c-0.8-9-2.5-16.4-2.5-16.4c-0.2-0.8-0.9-1.3-1.7-1.3c0,0-0.1,0-0.1,0c-10.5,0-19.7-3.5-22.9-7.8
		C31,952.8,30.3,952.4,29.6,952.4L29.6,952.4z M29.6,956.6c4.6,4.9,13.4,7.6,23.3,7.8c0.3,1.6,1.5,7.1,2.2,14.7
		c0.8,8.7,0.6,19-2.3,24.4c-2,3.7-8,7.9-13.5,10.9c-5,2.7-9.1,4.3-9.9,4.7c-0.8-0.3-4.9-1.9-9.9-4.7c-5.5-3-11.5-7.2-13.5-10.9
		c-2.9-5.4-3.1-15.7-2.3-24.4c0.7-7.6,1.8-13.2,2.2-14.7C16,964.2,24.9,961.5,29.6,956.6z"/>
	<g transform="matrix(1.2119767,0,0,1.2119767,13.543475,-231.28976)">
		<path class="st0" d="M10.6,996.7c-0.7,0-1.4,0.6-1.4,1.4v3.6H5.6c-0.8,0-1.4,0.6-1.4,1.4v0v5c0,0.8,0.6,1.4,1.4,1.4c0,0,0,0,0,0
			h3.6v3.6c0,0.7,0.6,1.4,1.4,1.4h5c0.7,0,1.4-0.6,1.4-1.4v-3.6h3.6c0.8,0,1.4-0.6,1.4-1.4v0v-5c0-0.8-0.6-1.4-1.4-1.4h0H17v-3.6
			c0-0.7-0.6-1.4-1.4-1.4L10.6,996.7L10.6,996.7z"/>
		<path class="st0" d="M13.1,991.1c-8,0-14.5,6.5-14.5,14.5c0,8,6.5,14.5,14.5,14.5s14.5-6.5,14.5-14.5
			C27.6,997.6,21.1,991.1,13.1,991.1z M13.1,993.8c6.5,0,11.8,5.3,11.8,11.8s-5.3,11.8-11.8,11.8s-11.8-5.3-11.8-11.8
			S6.6,993.8,13.1,993.8L13.1,993.8z"/>
	</g>
</g>
</svg>
