<svg width="172" height="48" viewBox="0 0 172 48" fill="none" xmlns="http://www.w3.org/2000/svg">
<path d="M42.3357 17.3999C35.8646 17.3999 30.655 22.5272 30.6001 28.7999C30.6001 35.1272 35.8098 40.2545 42.2808 40.2545C45.1872 40.2545 47.984 39.2181 50.1227 37.309V38.3454C50.1227 39.3817 50.9453 40.2545 52.0421 40.309C53.1388 40.309 54.0162 39.4908 54.0162 38.4544V38.3999V28.7999C54.0162 22.4726 48.8066 17.3999 42.3357 17.3999ZM42.3357 36.4363C38.0582 36.4363 34.5485 32.9999 34.5485 28.7999C34.5485 24.5999 38.0582 21.1635 42.3357 21.1635C46.613 21.1635 50.1227 24.5999 50.1227 28.7999C50.1227 33.0544 46.6678 36.4363 42.3357 36.4363Z" fill="#F5881B"/>
<path d="M98.5993 17.3999C92.1287 17.3999 86.9188 22.5272 86.8635 28.7999C86.8635 35.1272 92.0734 40.2545 98.545 40.2545C101.452 40.2545 104.247 39.2181 106.387 37.309V38.3454C106.387 39.3817 107.209 40.2545 108.306 40.309C109.403 40.309 110.28 39.4908 110.28 38.4544V38.3999V28.7999C110.28 22.4726 105.016 17.3999 98.5993 17.3999ZM98.5993 36.4363C94.3224 36.4363 90.8126 32.9999 90.8126 28.7999C90.8126 24.5999 94.3224 21.1635 98.5993 21.1635C102.877 21.1635 106.387 24.5999 106.387 28.7999C106.387 33.0544 102.877 36.4363 98.5993 36.4363Z" fill="#F5881B"/>
<path d="M11.6807 17.3457C8.82901 17.3457 6.03226 18.382 3.89352 20.2911V7.85475C3.89352 6.81839 3.07092 5.94566 1.97416 5.89111C0.877392 5.89111 0 6.70929 0 7.74566V7.8002V28.8547V38.3457C0 39.382 0.877392 40.2547 1.97416 40.2547C3.07092 40.2547 3.94841 39.382 3.94841 38.3457V28.8002C3.94841 24.6002 7.45808 21.1638 11.7355 21.1638C16.0129 21.1638 19.5226 24.6002 19.5226 28.8002V38.3457C19.5226 39.382 20.4 40.2547 21.4968 40.2547C21.9903 40.2547 22.4838 40.0366 22.8678 39.7093C23.2516 39.3275 23.4161 38.8366 23.4161 38.3457V28.8002C23.3613 22.4729 18.1516 17.4002 11.6807 17.3457Z" fill="#F5881B"/>
<path d="M64.1612 17.3999C63.0644 17.3999 62.187 18.2726 62.187 19.309C62.187 20.3454 63.0644 21.2181 64.1612 21.2181C65.2579 21.2181 66.1354 20.3454 66.1354 19.309C66.1354 18.2181 65.2579 17.3999 64.1612 17.3999Z" fill="#F5881B"/>
<path d="M77.3228 17.3999C70.8518 17.3999 65.6421 22.5272 65.6421 28.8545V38.3999C65.6421 39.4363 66.5195 40.309 67.6163 40.309C68.7131 40.309 69.5905 39.4363 69.5905 38.3999V28.7999C69.5905 24.5999 73.0454 21.1635 77.3776 21.1635C78.4744 21.1635 79.2969 20.2908 79.2969 19.1999C79.1872 18.2181 78.3647 17.3999 77.3228 17.3999Z" fill="#F5881B"/>
<path d="M139.345 36.7089C135.067 36.7089 131.558 33.3271 131.558 29.1271C131.558 24.9271 135.067 21.5452 139.345 21.5452C140.442 21.5452 141.319 20.7271 141.319 19.6907C141.319 18.6543 140.496 17.7816 139.4 17.7271H139.345C135.451 17.7271 131.777 19.636 129.584 22.8542C127.445 19.636 123.771 17.7271 119.823 17.7271C118.726 17.7271 117.903 18.5998 117.903 19.6907C117.903 20.7271 118.78 21.5452 119.823 21.5452C124.1 21.5452 127.609 24.9271 127.609 29.1271C127.609 33.3271 124.1 36.7089 119.823 36.7089C118.726 36.7089 117.903 37.5816 117.903 38.6725C117.903 39.7089 118.78 40.5271 119.823 40.5271C123.716 40.5271 127.39 38.6179 129.584 35.3997C131.722 38.6179 135.396 40.5271 139.345 40.5271C140.442 40.5271 141.319 39.7089 141.319 38.6725C141.319 37.6361 140.496 36.7634 139.4 36.7089H139.345Z" fill="#F5881B"/>
<path d="M169.781 40.582C170.878 40.582 171.7 41.4548 171.7 42.4911C171.7 43.5275 170.822 44.4002 169.781 44.4002C168.684 44.4002 167.862 43.5275 167.862 42.4911C167.862 41.4002 168.739 40.582 169.781 40.582Z" fill="#F5881B"/>
<path d="M171.754 32.7819V37.5274C171.754 38.5637 170.878 39.4364 169.781 39.4364C168.684 39.4364 167.862 38.5637 167.862 37.5274C165.668 39.4364 162.761 40.4728 159.799 40.4183C153.494 40.2001 148.558 34.9092 148.558 28.691V19.5274C148.558 18.5455 149.325 17.7274 150.313 17.6183C151.465 17.5092 152.397 18.5455 152.397 19.6364V28.9637C152.397 33.9274 157.277 37.8001 162.596 36.1637C165.777 35.1819 167.862 32.1819 167.862 28.9092V19.5274C167.862 19.0364 168.081 18.5455 168.409 18.1637C168.738 17.8364 169.178 17.6728 169.616 17.6183C170.768 17.5092 171.7 18.5455 171.7 19.6364V28.9092V32.9455C171.754 32.9455 171.754 32.891 171.754 32.7819Z" fill="#F5881B"/>
<path d="M152.835 35.836C152.835 35.836 151.026 35.8906 151.41 36.1087C151.794 36.2724 154.097 36.6542 154.645 36.7087H154.755L155.029 35.1269L153 34.7451L152.835 35.836Z" fill="black"/>
<path d="M154.809 36.709H154.699L154.315 36.6545C153.987 36.5999 153.548 36.5454 153.109 36.4363C152.615 36.3272 152.177 36.2727 151.902 36.2181L151.519 36.1636H151.409H151.354H151.409H151.519L151.902 36.2727C152.232 36.3272 152.671 36.4363 153.109 36.5454C153.603 36.6545 154.042 36.709 154.371 36.7636L154.755 36.8181L154.809 36.709Z" fill="#263238"/>
<path d="M154.918 36.1091C154.918 36.1091 154.864 36.1091 154.918 36.1091C154.864 36.0545 154.809 36.0545 154.755 36.0545C154.48 36 154.261 36.1636 154.096 36.3818C154.096 36.4363 154.042 36.4363 154.042 36.4909C154.042 36.4909 154.042 36.4909 154.042 36.5454C154.042 36.5454 154.042 36.4909 154.096 36.4363C154.151 36.3272 154.261 36.2727 154.371 36.1636C154.48 36.1091 154.59 36.1091 154.755 36.1091C154.864 36.1091 154.918 36.1091 154.918 36.1091Z" fill="#263238"/>
<path d="M154.81 36.7087L154.919 36.1632C154.754 36.1087 154.59 36.1632 154.426 36.2178C154.261 36.2723 154.151 36.4359 154.096 36.5996L154.81 36.7087Z" fill="#F0F0F0"/>
<path d="M151.957 35.8906C152.067 35.8906 152.067 36.1634 152.067 36.1634L154.81 36.6543V36.7088C153.767 36.5997 151.41 36.1633 151.354 36.0543C151.3 35.9452 151.957 35.8906 151.957 35.8906Z" fill="#F0F0F0"/>
<path d="M154.866 35.2363C154.81 35.3454 154.81 35.5091 154.756 35.6727C154.7 35.8363 154.7 35.9454 154.7 36.1091C154.756 36 154.756 35.8363 154.81 35.6727C154.81 35.5636 154.866 35.4 154.866 35.2363Z" fill="#263238"/>
<path d="M152.069 36.2178C152.069 36.1632 152.069 36.1087 152.069 35.9996C152.069 35.945 152.013 35.8905 151.958 35.8359C152.013 35.8905 152.013 35.945 152.069 35.9996C152.069 36.1087 152.069 36.1632 152.069 36.2178Z" fill="#263238"/>
<path d="M152.725 36.0541C152.725 35.9996 152.725 35.9996 152.725 35.945C152.725 35.8905 152.725 35.8905 152.67 35.8359C152.67 35.8359 152.67 35.8905 152.67 35.945C152.725 35.9996 152.725 36.0541 152.725 36.0541Z" fill="#263238"/>
<path d="M152.891 35.9997C152.891 35.9997 152.891 35.9452 152.836 35.9452C152.781 35.8906 152.781 35.8906 152.781 35.8906C152.781 35.8906 152.781 35.9452 152.836 35.9452C152.891 35.9452 152.891 35.9997 152.891 35.9997Z" fill="#263238"/>
<path d="M153.054 35.8363C152.999 35.8363 152.999 35.7817 152.945 35.7817C152.889 35.7817 152.889 35.7817 152.835 35.7817C152.889 35.7817 152.889 35.8363 152.945 35.8363C152.999 35.8363 152.999 35.8363 153.054 35.8363Z" fill="#263238"/>
<path d="M153.109 35.6724C153.055 35.6724 152.999 35.6724 152.999 35.6724C152.945 35.6724 152.945 35.6724 152.89 35.6724C152.945 35.7269 153.055 35.7269 153.109 35.6724Z" fill="#263238"/>
<path d="M152.67 35.8363C152.67 35.8363 152.616 35.8363 152.561 35.7817C152.507 35.7817 152.451 35.7272 152.451 35.7272L152.397 35.6726V35.6181C152.451 35.6181 152.507 35.6181 152.561 35.6181C152.616 35.6181 152.616 35.6726 152.67 35.7272C152.67 35.7817 152.67 35.8363 152.67 35.8363C152.67 35.8908 152.67 35.8908 152.67 35.8363C152.67 35.7817 152.616 35.7817 152.616 35.7272C152.561 35.6181 152.451 35.5635 152.342 35.6181L152.287 35.6726V35.7272L152.342 35.7817C152.397 35.7817 152.451 35.8363 152.451 35.8363C152.616 35.8363 152.67 35.8363 152.67 35.8363Z" fill="#263238"/>
<path d="M152.67 35.8363C152.67 35.7818 152.67 35.7818 152.67 35.7273C152.67 35.6727 152.726 35.6727 152.726 35.6727C152.726 35.6727 152.781 35.6182 152.835 35.6182C152.891 35.6182 152.835 35.6727 152.835 35.6727L152.781 35.7273C152.726 35.8363 152.67 35.8363 152.67 35.8363C152.726 35.8363 152.726 35.8363 152.781 35.7818C152.835 35.7818 152.835 35.7273 152.835 35.7273C152.835 35.7273 152.835 35.6727 152.891 35.6727C152.891 35.6727 152.891 35.6182 152.835 35.6182C152.781 35.6182 152.726 35.6182 152.726 35.6727C152.726 35.6727 152.67 35.7273 152.67 35.7818V35.8363Z" fill="#263238"/>
<path d="M157.442 30.1089C157.442 30.1089 157.496 30.1089 157.551 30.1089C157.606 30.1089 157.661 30.1634 157.661 30.1634C157.661 30.1634 157.606 30.1634 157.551 30.1634C157.442 30.1634 157.442 30.1089 157.442 30.1089Z" fill="#455A64"/>
<path d="M156.51 29.9452C156.51 29.9452 156.62 29.8906 156.729 29.8906C156.839 29.8906 156.948 29.9452 156.948 29.9452C156.948 29.9452 156.839 29.9452 156.729 29.9452C156.674 29.9997 156.62 29.9452 156.51 29.9452Z" fill="#455A64"/>
<path d="M153.823 36.3274C153.823 36.3274 153.712 36.3274 153.548 36.2728C153.383 36.2183 153.274 36.2183 153.274 36.2183C153.383 36.2728 153.493 36.2728 153.548 36.2728C153.658 36.3274 153.767 36.3274 153.823 36.3274Z" fill="#263238"/>
<path d="M154.26 36.3818C154.26 36.3818 154.206 36.3818 154.206 36.4364C154.206 36.4909 154.206 36.4909 154.206 36.4909C154.151 36.4909 154.206 36.4909 154.26 36.3818C154.206 36.4364 154.26 36.4364 154.26 36.3818Z" fill="#263238"/>
<path d="M154.425 36.2725C154.371 36.327 154.315 36.327 154.315 36.327C154.371 36.327 154.371 36.327 154.425 36.2725Z" fill="#263238"/>
<path d="M154.646 36.2183C154.646 36.2183 154.646 36.2183 154.591 36.2183C154.535 36.2183 154.535 36.2728 154.535 36.2728H154.591C154.646 36.2183 154.646 36.2183 154.646 36.2183Z" fill="#263238"/>
<path d="M154.809 36.2182C154.809 36.1636 154.809 36.1636 154.809 36.2182C154.755 36.2182 154.755 36.2182 154.755 36.2182C154.755 36.2182 154.755 36.2182 154.809 36.2182Z" fill="#263238"/>
<path d="M157.716 34.2541L156.455 31.4177L155.468 35.9995L152.781 35.5632C152.781 35.5632 153.823 31.8541 154.097 30.3268C154.7 27.2723 156.235 27.5995 156.235 27.5995C158.923 27.6541 161.72 33.8723 161.72 33.8723L157.716 34.2541Z" fill="#EF4D25"/>
<path d="M152.671 35.2363L152.616 35.5636L155.523 36.1091L155.577 35.7818L152.671 35.2363Z" fill="#455A64"/>
<path d="M156.016 30.5999C156.016 30.5999 156.016 30.4908 156.071 30.3818C156.127 30.2727 156.181 30.1636 156.181 30.1636C156.181 30.2181 156.181 30.3272 156.127 30.3818C156.071 30.5454 156.016 30.5999 156.016 30.5999Z" fill="#455A64"/>
<path d="M155.742 31.4725C155.742 31.4725 155.742 31.3634 155.798 31.2543C155.852 31.1452 155.852 31.0361 155.908 31.0361C155.908 31.0361 155.908 31.1452 155.852 31.2543C155.798 31.4179 155.798 31.4725 155.742 31.4725Z" fill="#455A64"/>
<path d="M155.522 32.3451C155.522 32.2905 155.522 32.1814 155.522 32.1269C155.577 32.0178 155.577 31.9087 155.633 31.9087C155.633 31.9087 155.633 32.0178 155.633 32.1269C155.577 32.2905 155.577 32.3451 155.522 32.3451Z" fill="#455A64"/>
<path d="M155.358 33.2723C155.358 33.2723 155.358 33.1632 155.358 33.0541C155.413 32.945 155.414 32.8359 155.468 32.8359C155.524 32.8359 155.468 32.945 155.468 33.0541C155.414 33.1632 155.358 33.2723 155.358 33.2723Z" fill="#455A64"/>
<path d="M155.139 34.1453C155.139 34.1453 155.139 34.0363 155.139 33.9272C155.193 33.8181 155.193 33.709 155.193 33.709C155.193 33.709 155.193 33.8181 155.193 33.9272C155.193 34.0363 155.139 34.1453 155.139 34.1453Z" fill="#455A64"/>
<path d="M154.919 35.0179C154.919 35.0179 154.919 34.9088 154.919 34.7997C154.973 34.6906 154.973 34.5815 154.973 34.5815C154.973 34.5815 154.973 34.6906 154.973 34.7997C154.973 34.9088 154.919 35.0179 154.919 35.0179Z" fill="#455A64"/>
<path d="M154.755 35.6728C154.755 35.6728 154.755 35.6182 154.755 35.5637C154.755 35.5091 154.809 35.4546 154.809 35.4546C154.809 35.4546 154.809 35.5091 154.809 35.5637C154.809 35.6182 154.809 35.6728 154.755 35.6728Z" fill="#455A64"/>
<path d="M166.161 25.2544L166.545 25.3089L167.532 27.4908L166.929 29.8908C166.6 30.9817 167.532 32.3998 167.697 33.4362L162.432 33.5453L162.158 30.1635L161.993 31.6908L159.745 31.9635L160.952 27.7089C161.609 25.2544 163.748 25.3089 163.748 25.3089" fill="black"/>
<path d="M165.613 25.2544V21.6544L164.352 20.5635L162.98 21.218C162.98 21.218 162.926 22.9089 162.98 23.618C163.036 24.3271 163.749 24.4362 163.749 24.4362C163.749 24.4362 163.803 25.1453 163.803 25.3089L165.613 25.2544Z" fill="#B78876"/>
<path d="M163.2 22.3635C163.2 22.3089 163.255 22.2544 163.309 22.2544C163.419 22.2544 163.419 22.3635 163.365 22.418C163.309 22.5271 163.2 22.4726 163.2 22.3635Z" fill="#263238"/>
<path d="M163.035 22.3088C163.035 22.3088 163.09 22.3088 163.035 22.3088C163.09 22.1997 163.145 22.1997 163.2 22.1997C163.254 22.1997 163.309 22.1997 163.364 22.2543C163.419 22.2543 163.419 22.3088 163.419 22.3088C163.419 22.3088 163.309 22.2543 163.254 22.2543C163.145 22.2543 163.09 22.3088 163.035 22.3088Z" fill="#263238"/>
<path d="M164.297 22.3635C164.297 22.3089 164.352 22.2544 164.406 22.2544C164.516 22.2544 164.516 22.3635 164.462 22.418C164.406 22.4726 164.297 22.4726 164.297 22.3635Z" fill="#263238"/>
<path d="M164.132 22.3088C164.132 22.3088 164.132 22.2543 164.186 22.2543C164.241 22.1997 164.296 22.1997 164.351 22.1997C164.406 22.1997 164.46 22.1997 164.516 22.2543C164.57 22.2543 164.57 22.3088 164.57 22.3088C164.57 22.3088 164.46 22.2543 164.406 22.2543C164.241 22.2543 164.186 22.3088 164.132 22.3088Z" fill="#263238"/>
<path d="M163.803 23.127C163.748 23.127 163.693 23.127 163.638 23.127H163.584C163.584 23.127 163.529 23.127 163.529 23.0724C163.529 23.0179 163.529 23.0179 163.529 22.9633L163.584 22.7452C163.638 22.5815 163.693 22.3633 163.803 22.1997C163.748 22.3633 163.693 22.5815 163.638 22.7452L163.584 22.9633V23.0179H163.638C163.693 23.127 163.748 23.127 163.803 23.127Z" fill="#263238"/>
<path d="M164.133 23.2363C164.133 23.2363 164.187 23.4 163.968 23.5091C163.858 23.5636 163.693 23.5091 163.639 23.4C163.803 23.3454 164.023 23.2909 164.133 23.2363Z" fill="white"/>
<path d="M163.803 24.5451C164.516 24.5997 164.79 24.0542 164.79 24.0542C164.516 24.2724 164.187 24.3815 163.803 24.3815V24.5451Z" fill="#A36957"/>
<path d="M166.819 22.3635C166.819 22.8544 166.654 23.9453 165.557 24.1635V22.5816H165.448C165.448 22.5816 164.516 22.0907 164.297 20.9998C164.241 21.218 164.187 21.6544 164.297 21.9271L162.981 22.1453C162.871 21.8726 162.816 21.5453 162.925 21.218C162.871 21.3816 162.816 21.5998 162.816 21.7635C162.816 22.0362 162.816 22.1453 162.816 22.1453C162.816 22.0907 162.816 22.0907 162.761 22.0362C162.761 21.9271 162.761 21.818 162.761 21.7089C162.761 21.1089 163.09 20.618 163.584 20.2907C164.241 19.8544 164.735 19.9089 164.845 19.9089C164.845 19.9089 166.49 19.7998 166.819 21.7089C166.819 21.7635 166.874 21.9271 166.874 22.0907C166.874 22.0907 166.874 22.0907 166.874 22.1453C166.819 22.3089 166.819 22.3635 166.819 22.3635Z" fill="black"/>
<path d="M166.765 21.8723C167.094 21.4905 167.642 21.436 168.081 21.7632C168.135 21.8178 168.19 21.8723 168.245 21.9814C168.3 22.0905 168.245 22.1451 168.19 22.2541C168.135 22.3087 168.026 22.3087 167.916 22.2541C168.081 22.3087 168.081 22.4723 168.026 22.5814C167.916 22.6905 167.752 22.6905 167.697 22.5269C167.697 22.5814 167.752 22.6905 167.752 22.745C167.752 22.7996 167.697 22.9087 167.642 22.9087C167.532 22.9087 167.478 22.9087 167.422 22.8541C167.368 22.7996 167.313 22.6905 167.258 22.636C167.149 22.4723 166.929 22.3632 166.655 22.3632" fill="black"/>
<path d="M167.916 21.327C167.861 21.327 167.806 21.327 167.696 21.327C167.532 21.327 167.422 21.3816 167.257 21.4361C167.148 21.4907 166.983 21.5998 166.929 21.7089C166.873 21.818 166.819 21.8725 166.819 21.8725C166.819 21.818 166.873 21.7634 166.929 21.7089C167.093 21.4361 167.422 21.2725 167.751 21.327C167.751 21.2725 167.861 21.2725 167.916 21.327Z" fill="black"/>
<path d="M166.765 21.8179C166.874 22.0361 166.874 22.2542 166.82 22.4724C166.82 22.3633 166.765 22.2542 166.765 22.1451C166.765 22.0361 166.765 21.927 166.765 21.8179Z" fill="#455A64"/>
<path d="M165.558 22.309C165.668 22.2544 165.777 22.2544 165.887 22.309C165.942 22.3635 165.997 22.4181 165.997 22.5272C166.052 22.6362 165.997 22.7999 165.887 22.909C165.777 23.0181 165.613 23.0181 165.503 22.9635L165.558 22.309Z" fill="#B78876"/>
<path d="M165.668 22.8545C165.668 22.8545 165.723 22.8545 165.777 22.8545C165.942 22.7454 165.942 22.5272 165.723 22.4727C165.668 22.4727 165.614 22.4727 165.614 22.4727C165.614 22.4727 165.668 22.4727 165.723 22.5272C165.833 22.5817 165.887 22.7454 165.777 22.8545C165.723 22.7999 165.668 22.7999 165.668 22.8545Z" fill="#A36957"/>
<path d="M165.997 22.8545C166.051 22.8545 166.106 22.909 166.161 22.909C166.216 22.9636 166.216 23.0181 166.216 23.0727C166.216 23.1272 166.161 23.1818 166.051 23.2363C165.997 23.2363 165.887 23.2363 165.832 23.1818C165.778 23.1272 165.778 23.0727 165.778 23.0181C165.778 22.9636 165.778 22.9636 165.832 22.909L165.887 22.8545C165.832 22.909 165.832 22.9636 165.832 23.0181C165.778 23.2363 166.106 23.3454 166.216 23.1272C166.216 23.0727 166.216 23.0181 166.161 22.9636C166.051 22.8545 165.997 22.8545 165.997 22.8545Z" fill="#EBEBEB"/>
<path d="M165.667 28.7453L167.916 29.3998L168.135 28.8544C168.41 28.1998 168.41 27.4362 168.135 26.7271C167.586 25.3089 166.489 25.2544 166.489 25.2544L165.667 28.7453Z" fill="black"/>
<path d="M162.214 31.0364C162.214 30.9818 162.214 30.9273 162.214 30.8727C162.214 30.7637 162.214 30.6546 162.158 30.4909C162.158 30.2727 162.103 30.1091 162.049 29.8909C161.993 29.6727 161.884 29.4546 161.829 29.1818C161.774 29.0727 161.774 28.9091 161.774 28.8C161.774 28.6909 161.829 28.5818 161.829 28.4182C161.884 28.2 161.993 28.0364 162.103 27.8727C162.214 27.7091 162.268 27.6 162.323 27.4909C162.323 27.4364 162.377 27.3818 162.433 27.3818C162.433 27.4364 162.377 27.4909 162.377 27.5455L162.158 27.9273C162.049 28.0909 161.993 28.3091 161.939 28.4727C161.829 28.6909 161.829 28.9637 161.884 29.1818C161.939 29.4546 162.049 29.6727 162.103 29.8909C162.158 30.1091 162.214 30.2727 162.214 30.4909C162.214 30.6 162.214 30.7637 162.214 30.9273C162.214 30.9273 162.214 30.9818 162.214 31.0364Z" fill="#263238"/>
<path d="M165.667 24.8179H163.803V25.2542H165.667V24.8179Z" fill="black"/>
<path d="M163.419 33.3818V33.3273C163.419 33.2727 163.419 33.1636 163.419 33.1091C163.419 32.8909 163.419 32.6182 163.473 32.2364C163.529 31.4727 163.584 30.4909 163.693 29.3454C163.803 28.2 163.967 27.2182 164.076 26.4545C164.132 26.0727 164.187 25.8 164.241 25.5818C164.241 25.4727 164.297 25.4182 164.297 25.3636C164.297 25.3091 164.297 25.3091 164.297 25.3091C164.297 25.3636 164.297 25.3636 164.297 25.4182C164.297 25.4727 164.297 25.5818 164.241 25.6364C164.187 25.8545 164.187 26.1273 164.132 26.5091C164.022 27.2182 163.913 28.2545 163.803 29.4C163.693 30.5454 163.638 31.5273 163.584 32.2909C163.584 32.6727 163.529 32.9454 163.529 33.1636C163.529 33.2727 163.529 33.3273 163.529 33.3818C163.419 33.3273 163.419 33.3818 163.419 33.3818Z" fill="#263238"/>
<path d="M164.296 24.8179C164.296 24.8179 164.296 24.927 164.296 25.0906C164.296 25.1997 164.351 25.3088 164.406 25.3633C164.516 25.4724 164.625 25.4724 164.735 25.4724C164.954 25.4724 165.174 25.4179 165.393 25.3088C165.557 25.2542 165.667 25.1997 165.667 25.1997C165.613 25.2542 165.503 25.3088 165.448 25.3633C165.228 25.4724 165.009 25.527 164.735 25.527C164.681 25.527 164.571 25.527 164.516 25.4724C164.46 25.4724 164.406 25.4179 164.351 25.3633C164.297 25.2542 164.241 25.1451 164.241 25.0361C164.241 24.9815 164.241 24.8724 164.241 24.8179C164.241 24.8724 164.296 24.8724 164.296 24.8179Z" fill="#263238"/>
<path d="M163.749 25.1998C163.749 25.2544 163.804 25.3089 163.858 25.3089C163.913 25.3635 163.968 25.3635 164.023 25.418C164.077 25.418 164.077 25.418 164.133 25.418C164.187 25.418 164.187 25.418 164.242 25.3635C164.296 25.3089 164.296 25.2544 164.296 25.1998C164.296 25.1453 164.296 25.0907 164.296 25.0362C164.296 24.9817 164.296 24.9271 164.296 24.8726C164.296 24.9271 164.296 24.9817 164.296 25.0362C164.296 25.0907 164.296 25.1453 164.296 25.1998C164.296 25.2544 164.242 25.3635 164.187 25.418C164.133 25.4726 164.133 25.4726 164.077 25.4726C164.023 25.4726 164.023 25.4726 163.968 25.4726C163.913 25.4726 163.858 25.418 163.804 25.3635C163.749 25.3089 163.749 25.1998 163.749 25.1998Z" fill="#263238"/>
<path d="M167.148 26.3999C167.202 26.2908 167.258 26.2362 167.313 26.1817C167.367 26.1272 167.477 26.0726 167.532 26.0181C167.532 26.0181 167.422 26.0726 167.313 26.1817C167.202 26.2908 167.148 26.3999 167.148 26.3999Z" fill="white"/>
<path d="M167.257 26.2365C167.257 26.2365 167.257 26.1819 167.257 26.0728C167.257 26.0183 167.257 25.9637 167.257 25.9092C167.257 25.9637 167.257 26.0183 167.257 26.0728C167.312 26.1274 167.312 26.1819 167.257 26.2365Z" fill="white"/>
<path d="M167.203 26.2905C167.257 26.2905 167.257 26.2905 167.313 26.2905C167.367 26.2905 167.367 26.2905 167.422 26.3451C167.367 26.3451 167.367 26.3451 167.313 26.3451C167.313 26.3451 167.257 26.2905 167.203 26.2905Z" fill="white"/>
<path d="M162.542 29.1269C162.597 29.0178 162.652 28.9633 162.706 28.9088C162.761 28.8542 162.871 28.7997 162.926 28.7451C162.926 28.7451 162.817 28.7997 162.706 28.9088C162.652 29.0178 162.542 29.1269 162.542 29.1269Z" fill="white"/>
<path d="M162.652 29.0181C162.707 29.0181 162.707 29.0181 162.761 29.0181C162.817 29.0181 162.817 29.0181 162.871 29.0726C162.817 29.0726 162.817 29.0726 162.761 29.0726C162.707 29.0181 162.707 29.0181 162.652 29.0181Z" fill="white"/>
<path d="M166.545 33C166.6 32.8909 166.654 32.8363 166.71 32.7818C166.764 32.7273 166.874 32.6727 166.929 32.6182C166.929 32.6182 166.819 32.6727 166.71 32.7818C166.654 32.8363 166.6 32.8909 166.545 33Z" fill="white"/>
<path d="M166.655 32.8361C166.655 32.8361 166.655 32.7815 166.655 32.6724C166.655 32.6179 166.655 32.5633 166.655 32.5088C166.655 32.5633 166.655 32.6179 166.655 32.6724C166.709 32.727 166.655 32.7815 166.655 32.8361Z" fill="white"/>
<path d="M166.6 32.8359C166.655 32.8359 166.655 32.8359 166.709 32.8359C166.765 32.8359 166.765 32.8359 166.819 32.8905C166.765 32.8905 166.765 32.8905 166.709 32.8905C166.709 32.8905 166.655 32.8905 166.6 32.8359Z" fill="white"/>
<path d="M165.009 28.1453C164.845 28.0363 164.735 27.8726 164.681 27.709C164.681 27.709 164.735 27.8181 164.845 27.9272C164.955 28.0908 165.009 28.1453 165.009 28.1453Z" fill="white"/>
<path d="M164.845 27.9818C164.845 27.9818 164.789 27.9818 164.68 27.9818C164.625 27.9818 164.57 27.9818 164.516 27.9272C164.57 27.9272 164.625 27.9272 164.68 27.9272C164.789 27.9818 164.845 27.9818 164.845 27.9818Z" fill="white"/>
<path d="M164.9 28.0361C164.9 27.9815 164.9 27.9815 164.9 27.927C164.9 27.8724 164.9 27.8724 164.954 27.8179C164.954 27.8724 164.954 27.8724 164.954 27.927C164.954 27.9815 164.954 28.0361 164.9 28.0361Z" fill="white"/>
<path d="M161.336 27.3273C161.39 27.2728 161.5 27.2183 161.609 27.2183C161.719 27.2183 161.774 27.2183 161.884 27.2183C161.884 27.2183 161.774 27.2183 161.609 27.2728C161.445 27.2728 161.336 27.3273 161.336 27.3273Z" fill="white"/>
<path d="M161.554 27.2724C161.554 27.2724 161.609 27.2178 161.665 27.1633C161.719 27.1087 161.719 27.0542 161.774 27.0542C161.774 27.1087 161.719 27.1633 161.719 27.2178C161.609 27.2178 161.609 27.2178 161.554 27.2724Z" fill="white"/>
<path d="M161.5 27.2725C161.554 27.2725 161.554 27.327 161.61 27.327C161.664 27.3816 161.664 27.4361 161.664 27.4361C161.61 27.4361 161.61 27.3816 161.554 27.3816C161.5 27.327 161.5 27.2725 161.5 27.2725Z" fill="white"/>
<path d="M165.449 26.5086C165.393 26.4541 165.284 26.3995 165.228 26.345C165.174 26.2904 165.119 26.1814 165.119 26.0723C165.119 26.0723 165.174 26.1814 165.284 26.2904C165.393 26.3995 165.449 26.5086 165.449 26.5086Z" fill="white"/>
<path d="M165.284 26.3451C165.284 26.3451 165.229 26.3451 165.119 26.3451C165.064 26.3451 165.009 26.3451 164.954 26.2905C165.009 26.2905 165.064 26.2905 165.119 26.2905C165.229 26.3451 165.284 26.3451 165.284 26.3451Z" fill="white"/>
<path d="M165.338 26.3998C165.338 26.3453 165.338 26.3453 165.338 26.2907C165.338 26.2362 165.338 26.2362 165.393 26.1816C165.393 26.2362 165.393 26.2362 165.393 26.2907C165.393 26.3453 165.393 26.3998 165.338 26.3998Z" fill="white"/>
<path d="M161.28 29.5088C161.171 29.4542 161.116 29.3997 161.061 29.3451C161.006 29.2906 160.952 29.1815 160.952 29.127C160.952 29.127 161.006 29.236 161.116 29.3451C161.171 29.4542 161.28 29.5088 161.28 29.5088Z" fill="white"/>
<path d="M161.116 29.3998C161.116 29.3998 161.06 29.3998 160.951 29.3998C160.896 29.3998 160.841 29.3998 160.787 29.3452C160.841 29.3452 160.896 29.3452 160.951 29.3452C161.006 29.3452 161.06 29.3452 161.116 29.3998Z" fill="white"/>
<path d="M161.171 29.4545C161.171 29.4 161.171 29.4 161.171 29.3454C161.171 29.2909 161.171 29.2909 161.225 29.2363C161.225 29.2909 161.225 29.2909 161.225 29.3454C161.171 29.3454 161.171 29.4 161.171 29.4545Z" fill="white"/>
<path d="M163.2 26.5086C163.036 26.3995 162.926 26.2359 162.871 26.0723C162.871 26.0723 162.926 26.1814 163.036 26.2904C163.146 26.3995 163.2 26.4541 163.2 26.5086Z" fill="white"/>
<path d="M163.09 26.3454C163.09 26.3454 163.035 26.3454 162.925 26.2909C162.871 26.2909 162.816 26.2909 162.761 26.2363C162.816 26.2363 162.871 26.2363 162.925 26.2363C162.981 26.2909 163.035 26.2909 163.09 26.3454Z" fill="white"/>
<path d="M163.09 26.3998C163.09 26.3453 163.09 26.3453 163.09 26.2907C163.09 26.2362 163.09 26.2362 163.144 26.1816C163.144 26.2362 163.144 26.2362 163.144 26.2907C163.144 26.2907 163.144 26.3453 163.09 26.3998Z" fill="white"/>
<path d="M164.297 29.6723C164.462 29.6177 164.681 29.6177 164.845 29.6723C164.845 29.6723 164.735 29.6723 164.571 29.6723C164.462 29.6723 164.297 29.6723 164.297 29.6723Z" fill="white"/>
<path d="M164.516 29.6728C164.516 29.6728 164.57 29.6182 164.625 29.5637C164.68 29.5091 164.68 29.5091 164.735 29.4546C164.68 29.5091 164.68 29.5637 164.625 29.5637C164.625 29.6182 164.57 29.6182 164.516 29.6728Z" fill="white"/>
<path d="M164.46 29.6724C164.46 29.6724 164.516 29.7269 164.516 29.7815C164.571 29.836 164.571 29.8905 164.571 29.8905C164.516 29.8905 164.516 29.836 164.516 29.7815C164.516 29.7269 164.46 29.6724 164.46 29.6724Z" fill="white"/>
<path d="M163.584 27.8178C163.584 27.8723 163.584 27.8178 163.584 27.8178C163.639 27.8178 163.639 27.8723 163.639 27.8723C163.639 27.9269 163.584 27.9269 163.584 27.9269C163.529 27.9269 163.529 27.8723 163.529 27.8723C163.529 27.8178 163.529 27.8178 163.584 27.8178C163.584 27.7632 163.584 27.7632 163.584 27.8178Z" fill="#263238"/>
<path d="M163.475 29.2905C163.475 29.3451 163.475 29.3451 163.475 29.2905C163.419 29.3451 163.475 29.3451 163.475 29.3451C163.475 29.3996 163.475 29.3451 163.475 29.2905C163.475 29.3451 163.475 29.3451 163.475 29.2905C163.475 29.3451 163.475 29.2905 163.475 29.2905C163.529 29.3451 163.529 29.3996 163.475 29.3996C163.419 29.3996 163.419 29.3451 163.419 29.3451C163.364 29.3451 163.419 29.2905 163.475 29.2905Z" fill="#263238"/>
<path d="M163.365 30.6543C163.31 30.7088 163.365 30.7088 163.365 30.6543C163.365 30.7088 163.365 30.7088 163.365 30.6543C163.365 30.7088 163.365 30.6543 163.365 30.6543C163.42 30.6543 163.42 30.7088 163.42 30.7088C163.42 30.7634 163.365 30.7634 163.365 30.7634C163.31 30.7634 163.31 30.7088 163.31 30.7088C163.31 30.7088 163.31 30.6543 163.365 30.6543Z" fill="#263238"/>
<path d="M163.859 26.3452C163.859 26.3998 163.803 26.3998 163.859 26.3452C163.803 26.3998 163.803 26.3998 163.859 26.3452C163.859 26.4543 163.859 26.3998 163.859 26.3452C163.859 26.3998 163.803 26.3998 163.859 26.3452C163.803 26.3998 163.803 26.3452 163.859 26.3452C163.913 26.3452 163.913 26.3998 163.913 26.3998C163.913 26.4543 163.859 26.4543 163.859 26.4543C163.803 26.4543 163.803 26.3998 163.803 26.3998C163.749 26.3998 163.749 26.3998 163.859 26.3452C163.803 26.3452 163.859 26.3452 163.859 26.3452Z" fill="#263238"/>
<path d="M167.642 33.2726C167.642 33.2726 160.623 33.1635 158.539 33.2726C156.455 33.3817 155.851 34.2544 155.907 35.1272C155.961 35.8362 156.564 36.2726 157.167 36.4908C157.716 36.709 158.21 36.6544 158.813 36.6544C160.129 36.6544 163.474 36.6544 165.997 36.5453C168.848 36.4362 167.642 33.2726 167.642 33.2726Z" fill="#EF4D25"/>
<path d="M167.148 33.4906C167.148 33.4906 167.093 33.4361 167.093 33.3816C167.093 33.327 167.093 33.2725 167.093 33.2725C167.093 33.2725 167.148 33.327 167.148 33.3816C167.148 33.4361 167.148 33.4906 167.148 33.4906Z" fill="#455A64"/>
<path d="M167.312 34.3636C167.312 34.3091 167.257 34.2 167.257 34.1454C167.257 34.0363 167.257 33.9272 167.257 33.9272C167.312 33.9818 167.312 34.0909 167.312 34.1454C167.312 34.3091 167.312 34.3636 167.312 34.3636Z" fill="#455A64"/>
<path d="M166.929 35.1818C166.929 35.1818 166.984 35.0727 167.038 35.0181C167.094 34.909 167.148 34.8545 167.203 34.8545C167.203 34.8545 167.203 34.9636 167.094 35.0727C167.038 35.1272 166.929 35.1818 166.929 35.1818Z" fill="#455A64"/>
<path d="M166.051 35.509C166.051 35.509 166.161 35.4544 166.27 35.4544C166.325 35.4544 166.435 35.3999 166.489 35.3999C166.489 35.3999 166.38 35.4544 166.27 35.509C166.161 35.509 166.051 35.509 166.051 35.509Z" fill="#455A64"/>
<path d="M165.119 35.5633C165.174 35.5088 165.284 35.5088 165.339 35.5088C165.449 35.5088 165.558 35.5088 165.558 35.5088C165.558 35.5088 165.449 35.5633 165.339 35.5633C165.228 35.6179 165.119 35.6179 165.119 35.5633Z" fill="#455A64"/>
<path d="M164.187 35.5634C164.351 35.5088 164.516 35.5088 164.625 35.5634C164.625 35.5634 164.516 35.6179 164.406 35.6179C164.297 35.6179 164.187 35.6179 164.187 35.5634Z" fill="#455A64"/>
<path d="M163.255 35.618C163.309 35.5635 163.419 35.5635 163.474 35.5635C163.53 35.5635 163.639 35.5635 163.693 35.618C163.639 35.6726 163.53 35.6726 163.474 35.6726C163.365 35.618 163.255 35.618 163.255 35.618Z" fill="#455A64"/>
<path d="M162.322 35.618C162.377 35.5635 162.487 35.5635 162.541 35.5635C162.651 35.5635 162.76 35.5635 162.76 35.618C162.706 35.6726 162.596 35.6726 162.541 35.6726C162.432 35.618 162.322 35.618 162.322 35.618Z" fill="#455A64"/>
<path d="M161.39 35.618C161.445 35.5635 161.555 35.5635 161.61 35.5635C161.72 35.5635 161.829 35.5635 161.829 35.618C161.774 35.618 161.665 35.6726 161.61 35.6726C161.5 35.618 161.39 35.618 161.39 35.618Z" fill="#455A64"/>
<path d="M160.458 35.5633C160.458 35.5633 160.568 35.5088 160.677 35.5088C160.731 35.5088 160.841 35.5088 160.896 35.5633C160.896 35.5633 160.787 35.6179 160.677 35.6179C160.622 35.6179 160.512 35.6179 160.458 35.5633Z" fill="#455A64"/>
<path d="M159.526 35.5633C159.526 35.5633 159.636 35.5088 159.745 35.5633C159.855 35.5633 159.964 35.5633 159.964 35.6179C159.91 35.6179 159.801 35.6724 159.745 35.6179C159.69 35.6179 159.58 35.6179 159.526 35.5633Z" fill="#455A64"/>
<path d="M158.593 35.5633C158.648 35.5633 158.758 35.5088 158.812 35.5633C158.922 35.5633 159.031 35.5633 159.031 35.6179C159.031 35.6179 158.922 35.6724 158.812 35.6724C158.758 35.6179 158.648 35.6179 158.593 35.5633Z" fill="#455A64"/>
<path d="M157.661 35.5634C157.826 35.5088 157.991 35.5088 158.1 35.5634C158.045 35.6179 157.936 35.6179 157.881 35.5634C157.771 35.5634 157.661 35.5634 157.661 35.5634Z" fill="#455A64"/>
<path d="M156.729 35.5634C156.783 35.5088 156.893 35.5088 156.948 35.5634C157.002 35.5634 157.112 35.5634 157.167 35.6179C157.112 35.6725 157.002 35.6725 156.948 35.6725C156.839 35.5634 156.729 35.5634 156.729 35.5634Z" fill="#455A64"/>
<path d="M156.016 35.5633C156.016 35.5633 156.071 35.5088 156.126 35.5088C156.18 35.5088 156.236 35.5088 156.236 35.5633C156.236 35.6179 156.18 35.6179 156.126 35.6179C156.071 35.5633 156.016 35.5633 156.016 35.5633Z" fill="#455A64"/>
<path d="M156.181 35.7817H158.155C159.361 35.7817 161.061 35.7817 162.871 35.7817C163.804 35.7817 164.681 35.7817 165.503 35.7817C165.887 35.7817 166.271 35.7817 166.655 35.7272C166.82 35.6726 166.984 35.6181 167.094 35.5635C167.203 35.4544 167.313 35.3453 167.423 35.2362C167.478 35.1272 167.533 34.9636 167.533 34.8545C167.533 34.7454 167.533 34.5817 167.533 34.4726C167.533 34.2544 167.478 34.0909 167.423 33.8727C167.368 33.7091 167.368 33.5999 167.313 33.4908V33.3817C167.313 33.3817 167.313 33.3817 167.313 33.3271C167.313 33.3271 167.313 33.3271 167.313 33.3817C167.313 33.3817 167.313 33.4362 167.368 33.4908C167.423 33.5999 167.423 33.7091 167.478 33.8727C167.533 34.0909 167.587 34.2544 167.587 34.4726C167.587 34.5817 167.587 34.7454 167.587 34.8545C167.587 35.0182 167.533 35.1271 167.478 35.2908C167.368 35.3999 167.258 35.5635 167.149 35.6726C166.984 35.7817 166.82 35.8363 166.655 35.8909C166.271 35.9454 165.887 36 165.503 36C164.681 36 163.804 36 162.871 36.0545C161.007 36.0545 159.361 36.0545 158.155 36.0545H156.729H156.345H156.181V35.7817Z" fill="#455A64"/>
<path d="M161.884 31.0909C162.542 31.0909 164.462 30.8727 165.558 30.2182C165.833 30.0546 165.942 27.3818 165.942 27.3818H168.19C168.19 27.3818 168.41 27.7637 168.026 30.5455C167.697 33.2182 161.774 32.6727 161.774 32.6727L161.884 31.0909Z" fill="black"/>
<path d="M161.774 32.6727C161.774 32.6181 161.774 32.6181 161.774 32.5636C161.774 32.509 161.774 32.3999 161.774 32.2363C161.774 31.9636 161.828 31.5818 161.828 31.0908C162.706 30.9818 163.584 30.8727 164.46 30.6545C164.735 30.5999 165.009 30.4908 165.229 30.3272C165.448 30.1636 165.557 29.9454 165.667 29.6727C165.722 29.4545 165.777 29.2363 165.777 28.9636C165.777 28.7454 165.832 28.5272 165.832 28.3636C165.887 27.9818 165.887 27.6545 165.887 27.4908C165.887 27.3818 165.887 27.3272 165.887 27.2727C165.887 27.2181 165.887 27.2181 165.887 27.1636C165.887 27.2181 165.887 27.2181 165.887 27.2727C165.887 27.3272 165.887 27.4363 165.887 27.4908C165.887 27.709 165.887 27.9818 165.832 28.3636C165.832 28.5272 165.777 28.7454 165.777 28.9636C165.777 29.1818 165.722 29.4545 165.667 29.6727C165.613 29.9454 165.448 30.1636 165.229 30.3272C165.009 30.4908 164.681 30.5999 164.406 30.6545C163.528 30.8727 162.651 30.9818 161.774 31.0363C161.719 31.5272 161.719 31.909 161.664 32.1818C161.664 32.2908 161.664 32.3999 161.609 32.509C161.774 32.6181 161.774 32.6727 161.774 32.6727Z" fill="#263238"/>
<path d="M161.665 32.6724H161.719C161.774 32.6724 161.828 32.6724 161.939 32.6724C162.212 32.6724 162.487 32.7269 162.761 32.7269C163.693 32.6724 164.571 32.5633 165.503 32.3997C165.997 32.2906 166.49 32.1815 166.929 31.9087C167.094 31.7997 167.313 31.6906 167.478 31.5269C167.587 31.4178 167.751 31.2542 167.806 31.0906C167.971 30.8724 168.026 30.5997 168.026 30.3269C168.026 30.1633 168.026 30.0542 168.026 30.0542C168.081 30.1633 168.081 30.2724 168.081 30.3269C168.081 30.5997 168.026 30.8724 167.861 31.0906C167.751 31.2542 167.642 31.4178 167.532 31.5269C167.368 31.6906 167.203 31.7997 166.984 31.9087C166.545 32.1269 166.051 32.2906 165.558 32.3997C164.681 32.6178 163.749 32.7269 162.816 32.7269C162.542 32.7269 162.268 32.7269 161.993 32.6724C161.884 32.6724 161.828 32.6178 161.774 32.6178C161.719 32.6724 161.719 32.6724 161.665 32.6724Z" fill="#263238"/>
<path d="M166.38 27.8725C166.435 27.7634 166.489 27.7089 166.545 27.6544C166.599 27.5998 166.709 27.5453 166.764 27.4907C166.764 27.4907 166.654 27.5453 166.545 27.6544C166.489 27.7635 166.435 27.818 166.38 27.8725Z" fill="white"/>
<path d="M166.49 27.7637C166.545 27.7637 166.545 27.7637 166.6 27.7637C166.654 27.7637 166.654 27.7637 166.709 27.8182C166.654 27.8182 166.654 27.8182 166.6 27.8182C166.545 27.8182 166.49 27.7637 166.49 27.7637Z" fill="white"/>
<path d="M161.774 32.6181L160.403 32.6727C160.403 32.6727 160.568 32.0181 160.677 31.7454C160.841 31.4727 161.828 31.4727 161.828 31.4727L161.774 32.6181Z" fill="#B78876"/>
<path d="M163.145 32.0726C162.981 31.9635 162.871 31.7999 162.816 31.6362C162.816 31.6362 162.871 31.7453 162.981 31.8544C163.035 31.9635 163.145 32.0726 163.145 32.0726Z" fill="white"/>
<path d="M162.981 31.909C162.981 31.909 162.926 31.909 162.817 31.909C162.761 31.909 162.707 31.909 162.652 31.8545C162.707 31.8545 162.761 31.8545 162.817 31.8545C162.871 31.8545 162.926 31.909 162.981 31.909Z" fill="white"/>
<path d="M162.98 31.9633C162.98 31.9088 162.98 31.8542 162.98 31.8542C162.98 31.7997 162.98 31.7997 163.035 31.7451C163.089 31.7997 163.035 31.9088 162.98 31.9633Z" fill="white"/>
<path d="M167.039 31.3089C166.984 31.2544 166.874 31.1998 166.819 31.1453C166.765 31.0907 166.709 30.9816 166.709 30.8726C166.709 30.8726 166.765 30.9816 166.874 31.0907C166.984 31.2544 167.039 31.3089 167.039 31.3089Z" fill="white"/>
<path d="M166.874 31.1996C166.874 31.1996 166.819 31.1996 166.71 31.1996C166.654 31.1996 166.6 31.1996 166.545 31.145C166.6 31.145 166.654 31.145 166.71 31.145C166.819 31.145 166.874 31.145 166.874 31.1996Z" fill="white"/>
<path d="M166.929 31.2543C166.929 31.1998 166.929 31.1998 166.929 31.1452C166.929 31.0907 166.929 31.0907 166.984 31.0361C166.984 31.0907 166.984 31.0907 166.984 31.1452C166.984 31.1452 166.984 31.1998 166.929 31.2543Z" fill="white"/>
<path d="M164.516 31.4726C164.57 31.3635 164.625 31.309 164.68 31.2545C164.735 31.1999 164.845 31.1454 164.9 31.0908C164.9 31.0908 164.789 31.1454 164.68 31.2545C164.57 31.3635 164.516 31.4726 164.516 31.4726Z" fill="white"/>
<path d="M164.625 31.3087C164.625 31.2542 164.625 31.1996 164.625 31.1451C164.625 31.0905 164.625 31.036 164.625 30.9814C164.625 31.036 164.625 31.0905 164.625 31.1451C164.68 31.1996 164.68 31.2542 164.625 31.3087Z" fill="white"/>
<path d="M167.203 29.3999C167.257 29.2362 167.422 29.0726 167.586 29.0181C167.586 29.0181 167.477 29.0726 167.367 29.1817C167.313 29.3453 167.203 29.3999 167.203 29.3999Z" fill="white"/>
<path d="M167.313 29.2365C167.313 29.2365 167.313 29.1819 167.313 29.0728C167.313 29.0183 167.313 28.9637 167.313 28.9092C167.313 28.9637 167.313 29.0183 167.313 29.0728C167.368 29.1274 167.368 29.1819 167.313 29.2365Z" fill="white"/>
<path d="M167.313 29.2905C167.368 29.2905 167.478 29.2905 167.532 29.2905C167.478 29.2905 167.478 29.2905 167.422 29.2905C167.368 29.3451 167.313 29.2905 167.313 29.2905Z" fill="white"/>
<path d="M167.533 27.1634C167.478 27.1088 167.422 27.1088 167.422 27.0543C167.368 26.9997 167.368 26.9452 167.368 26.8906C167.422 26.9452 167.422 26.9997 167.478 27.0543C167.478 27.0543 167.533 27.1088 167.533 27.1634Z" fill="#263238"/>
<path d="M166.271 26.3453C166.271 26.2908 166.326 26.2362 166.326 26.1817C166.326 26.1272 166.381 26.0726 166.436 26.0181C166.436 26.0726 166.381 26.1272 166.381 26.1817C166.326 26.2362 166.326 26.2908 166.271 26.3453Z" fill="#263238"/>
<path d="M165.009 27.3815C164.955 27.3269 164.9 27.2724 164.845 27.2178C164.79 27.1633 164.735 27.1087 164.681 27.0542C164.735 27.1087 164.79 27.1633 164.845 27.2178C164.9 27.2724 164.955 27.3269 165.009 27.3815Z" fill="#263238"/>
<path d="M164.845 28.9091C164.845 28.9091 164.9 28.8546 165.01 28.8C165.065 28.7455 165.12 28.6909 165.12 28.6909C165.12 28.7455 165.065 28.8 165.01 28.8C164.955 28.8546 164.9 28.8546 164.845 28.9091Z" fill="#263238"/>
<path d="M164.186 28.9636C164.186 28.9091 164.132 28.8546 164.132 28.8546C164.132 28.8 164.132 28.7455 164.132 28.6909C164.132 28.7455 164.186 28.8 164.186 28.8C164.186 28.8546 164.186 28.9091 164.186 28.9636Z" fill="#263238"/>
<path d="M165.009 30.2724C165.065 30.2178 165.065 30.1633 165.119 30.1633C165.174 30.1087 165.228 30.1087 165.284 30.0542C165.228 30.1087 165.228 30.1633 165.174 30.1633C165.065 30.2178 165.009 30.2178 165.009 30.2724Z" fill="#263238"/>
<path d="M162.542 30.0542C162.597 30.0542 162.706 30.1087 162.761 30.1087C162.817 30.1087 162.871 30.1633 162.981 30.2178C162.926 30.2178 162.817 30.1633 162.761 30.1633C162.706 30.1087 162.652 30.1087 162.542 30.0542Z" fill="#263238"/>
<path d="M162.816 28.0362C162.816 28.0362 162.871 27.9816 162.981 27.9816C163.09 27.9271 163.145 27.8726 163.145 27.8726C163.09 27.9271 163.09 27.9816 162.981 27.9816C162.925 27.9816 162.871 28.0362 162.816 28.0362Z" fill="#263238"/>
<path d="M162.706 26.7815C162.652 26.727 162.597 26.727 162.542 26.6724C162.487 26.6179 162.432 26.5633 162.432 26.5088C162.487 26.5633 162.542 26.5633 162.597 26.6179C162.652 26.6724 162.652 26.727 162.706 26.7815Z" fill="#263238"/>
<path d="M163.255 25.6908C163.309 25.6908 163.365 25.6362 163.365 25.6362C163.419 25.6362 163.474 25.6362 163.53 25.6362C163.474 25.6362 163.419 25.6908 163.419 25.6908C163.309 25.6908 163.309 25.6908 163.255 25.6908Z" fill="#263238"/>
<path d="M164.956 25.2543C164.9 25.2543 164.9 25.1998 164.846 25.1452C164.79 25.0907 164.79 25.0907 164.79 25.0361C164.846 25.0361 164.846 25.0907 164.9 25.1452C164.9 25.1998 164.9 25.2543 164.956 25.2543Z" fill="#263238"/>
<path d="M164.406 26.1272C164.406 26.0727 164.462 26.0181 164.462 25.9636C164.462 25.909 164.516 25.8545 164.572 25.8545C164.572 25.909 164.516 25.9636 164.516 26.0181C164.516 26.0181 164.462 26.0727 164.406 26.1272Z" fill="#263238"/>
<path d="M161.117 28.4727C161.171 28.4182 161.171 28.4182 161.226 28.3636C161.282 28.3091 161.336 28.3091 161.336 28.3091C161.282 28.3636 161.282 28.3636 161.226 28.4182C161.226 28.4182 161.171 28.4182 161.117 28.4727Z" fill="#263238"/>
<path d="M161.719 30.109C161.719 30.0545 161.665 29.9999 161.665 29.9454C161.665 29.8908 161.609 29.8363 161.609 29.7817C161.609 29.8363 161.665 29.8908 161.665 29.9454C161.719 29.9999 161.719 30.0545 161.719 30.109Z" fill="#263238"/>
<path d="M161.06 30.5997C161.116 30.5451 161.17 30.5451 161.225 30.4906C161.279 30.436 161.335 30.436 161.389 30.436C161.335 30.4906 161.279 30.4906 161.225 30.5451C161.17 30.5451 161.116 30.5997 161.06 30.5997Z" fill="#263238"/>
<path d="M165.778 32.7271C165.832 32.7816 165.887 32.7816 165.941 32.8361C165.997 32.8907 166.051 32.8907 166.106 32.9452C166.051 32.8907 165.997 32.8907 165.941 32.8361C165.832 32.8361 165.778 32.7816 165.778 32.7271Z" fill="#263238"/>
<path d="M164.625 33.0541C164.681 32.945 164.735 32.8905 164.844 32.8359C164.844 32.8905 164.79 32.8905 164.735 32.945C164.735 32.9996 164.681 32.9996 164.625 33.0541Z" fill="#263238"/>
<path d="M167.093 32.2363C167.093 32.2363 167.148 32.2909 167.202 32.2909C167.257 32.3454 167.312 32.3454 167.312 32.3454C167.202 32.3454 167.148 32.2909 167.093 32.2363Z" fill="#263238"/>
<path d="M167.313 28.2C167.368 28.1454 167.422 28.0909 167.478 28.0363C167.532 27.9818 167.587 27.9272 167.641 27.9272C167.587 27.9818 167.532 28.0363 167.478 28.0909C167.422 28.0909 167.368 28.1454 167.313 28.2Z" fill="#263238"/>
<path d="M166.326 28.7451C166.381 28.7997 166.436 28.8542 166.49 28.9088C166.546 28.9633 166.6 29.0178 166.655 29.0724C166.6 29.0178 166.546 28.9633 166.49 28.9088C166.436 28.8542 166.381 28.7997 166.326 28.7451Z" fill="#263238"/>
<path d="M167.148 30.3271C167.148 30.3271 167.258 30.2725 167.313 30.218C167.367 30.1634 167.422 30.1089 167.477 30.1089C167.422 30.1634 167.367 30.218 167.313 30.2725C167.313 30.2725 167.258 30.3271 167.148 30.3271Z" fill="#263238"/>
<path d="M165.942 30.7637C165.942 30.6546 165.942 30.6001 165.942 30.491C165.942 30.3819 165.942 30.3274 165.996 30.2183C165.996 30.3274 165.996 30.3819 165.942 30.491C165.996 30.6001 165.996 30.6546 165.942 30.7637Z" fill="#263238"/>
<path d="M165.394 31.7998C165.448 31.7998 165.557 31.8544 165.613 31.8544C165.722 31.9089 165.832 31.9089 165.832 31.9089C165.778 31.9089 165.668 31.9089 165.613 31.8544C165.503 31.9089 165.448 31.8543 165.394 31.7998Z" fill="#263238"/>
<path d="M163.749 31.5269C163.804 31.5814 163.858 31.6905 163.858 31.745C163.913 31.7996 163.913 31.9087 163.968 31.9632C163.913 31.9087 163.858 31.7996 163.858 31.745C163.804 31.6905 163.749 31.5814 163.749 31.5269Z" fill="#263238"/>
<path d="M162.213 32.2905C162.268 32.2905 162.323 32.3451 162.377 32.3996C162.433 32.4542 162.487 32.4542 162.542 32.5087C162.487 32.5087 162.433 32.4542 162.377 32.3996C162.323 32.3996 162.268 32.3451 162.213 32.2905Z" fill="#263238"/>
<path d="M163.145 27.7088C163.09 27.7088 163.036 27.7088 162.98 27.7088C162.871 27.7088 162.706 27.7088 162.542 27.6543H162.596L162.487 28.3088L162.542 28.3634L162.761 28.5816H162.706L163.036 28.4179C163.036 28.2543 163.09 28.0907 163.09 27.9816C163.09 27.8179 163.145 27.7634 163.145 27.7088C163.145 27.7634 163.145 27.8179 163.145 27.8725C163.145 27.9816 163.145 28.1452 163.09 28.3634C162.98 28.4179 162.871 28.4725 162.761 28.527L162.542 28.3634L162.487 28.3088C162.542 28.0907 162.542 27.8725 162.596 27.6543C162.761 27.6543 162.926 27.7088 163.036 27.7088C163.036 27.7088 163.09 27.7088 163.145 27.7088Z" fill="#263238"/>
<path d="M162.542 27.9269C162.706 27.8723 162.926 27.9269 163.09 27.9814C162.981 27.9814 162.926 27.9814 162.817 27.9814C162.761 27.9814 162.652 27.9269 162.542 27.9269Z" fill="#263238"/>
<path d="M157.388 33.2181L155.742 29.7817H160.293L161.5 32.7272L163.913 33.0545V33.2727L157.388 33.2181Z" fill="#A4A4A4"/>
<path d="M158.429 31.5271C158.374 31.4181 158.374 31.309 158.484 31.1999C158.648 31.0908 158.868 31.2544 158.813 31.4181C158.758 31.6362 158.539 31.6908 158.429 31.5271Z" fill="white"/>
<path d="M167.094 45.1635C167.094 45.8726 166.71 46.5271 166.052 46.8544C165.887 46.9089 165.722 46.9635 165.558 47.018C165.558 47.018 165.558 47.018 165.503 47.018C161.939 48.3271 157.99 48.2726 154.426 46.9089C153.439 46.5271 152.945 45.3817 153.384 44.3998C153.713 43.6908 154.426 43.2544 155.194 43.2544C155.413 43.2544 155.632 43.3089 155.852 43.3635C155.907 43.3635 155.907 43.3635 155.961 43.418C157.277 43.9089 158.703 44.1817 160.184 44.1817C161.555 44.1817 162.981 43.9635 164.242 43.4726C164.352 43.418 164.462 43.418 164.516 43.3635C164.516 43.3635 164.516 43.3635 164.571 43.3635C164.735 43.3089 164.955 43.3089 165.119 43.3089C166.216 43.2544 167.094 44.1271 167.094 45.1635Z" fill="#F5881B"/>
<path d="M24.3481 27.4909L25.1706 26.7272L23.7448 24.5454L22.8674 25.309L24.3481 27.4909Z" fill="#FF8B7B"/>
<path d="M25.0068 26.2907L23.91 26.9998C23.8552 26.9998 23.8552 27.0543 23.91 27.1089L24.4584 27.9816C24.5132 28.0907 24.6778 28.0907 24.7326 28.0361C25.1164 27.7634 25.2261 27.6543 25.7197 27.2725C25.9939 27.0543 26.652 26.5089 26.981 26.1816C27.31 25.8543 26.981 25.5271 26.7616 25.6361C26.3229 25.9089 25.61 26.2361 25.2261 26.1816C25.1164 26.2361 25.0617 26.2361 25.0068 26.2907Z" fill="#263238"/>
<path opacity="0.2" d="M22.8674 25.309L23.7448 24.5454L24.4029 25.6363L23.5256 26.3454L22.8674 25.309Z" fill="black"/>
<path d="M14.258 14.4545C14.258 14.4545 19.9612 14.0727 20.6741 15.9818C22.2644 20.2909 24.3482 24.8181 24.3482 24.8181L22.6483 26.0181C22.6483 26.0181 19.0838 20.7272 18.0418 17.2909C15.8483 17.8363 11.8999 18.2727 10.5837 16.8C9.48697 15.6 10.3096 14.4545 10.3096 14.4545H14.258Z" fill="#263238"/>
<path opacity="0.3" d="M19.1386 17.7817C19.2482 18.3272 19.4676 19.7999 19.5773 20.7817C19.3031 20.2363 19.0289 19.7454 18.8096 19.1999L19.1386 17.7817Z" fill="black"/>
<path d="M22.7578 26.5088L24.6771 25.0906L24.2933 24.2725L22.1545 25.8543L22.7578 26.5088Z" fill="#EF4D25"/>
<path d="M25.6094 26.018C25.6094 25.9634 25.6094 25.9089 25.5545 25.8543C25.4997 25.8543 25.4997 25.7998 25.4448 25.8543C25.2803 25.9089 25.1706 26.2361 25.1157 26.2907C25.1157 26.2907 25.1157 26.2907 25.1157 26.3452C25.1157 26.3452 25.1157 26.3452 25.1706 26.3452C25.2254 26.2907 25.3351 26.2907 25.4448 26.1816C25.5545 26.1816 25.6094 26.0725 25.6094 26.018ZM25.4448 25.9089C25.4997 25.9089 25.4997 25.9089 25.4448 25.9089C25.4997 25.9634 25.5545 25.9634 25.5545 26.018C25.5545 26.0725 25.4448 26.1816 25.2254 26.2907C25.2803 26.127 25.39 25.9634 25.4448 25.9089Z" fill="#EF4D25"/>
<path d="M25.1709 26.3453C25.2258 26.2362 25.2258 25.9089 25.1161 25.8544C25.0612 25.7998 25.0612 25.7998 25.0064 25.8544C24.9516 25.8544 24.9516 25.9089 24.9516 25.9635C24.8967 26.0726 25.1161 26.3453 25.1709 26.3453ZM25.0612 25.8544C25.1161 25.8544 25.1161 25.8544 25.1161 25.8544C25.1709 25.9089 25.1709 26.1271 25.1709 26.2362C25.1161 26.1271 25.0064 25.9635 25.0064 25.9089C25.0064 25.9089 25.0064 25.9089 25.0612 25.8544Z" fill="#EF4D25"/>
<path d="M16.8362 28.7451L17.9329 28.9633L18.1523 26.127H17.0007L16.8362 28.7451Z" fill="#FF8B7B"/>
<path d="M18.0968 28.5817L16.8354 28.0908C16.7806 28.0908 16.7257 28.0908 16.7257 28.1454L16.2322 29.0726C16.1774 29.1817 16.2322 29.2908 16.3419 29.3454C16.7806 29.509 17 29.5635 17.5483 29.7817C17.8774 29.9454 18.8097 30.3272 19.3032 30.4363C19.7967 30.5454 19.9064 30.0545 19.6871 29.9999C19.1935 29.7817 18.4257 29.1272 18.2064 28.7454C18.2064 28.6908 18.1516 28.6363 18.0968 28.5817Z" fill="#263238"/>
<path d="M18.6454 28.9633C18.7002 28.9633 18.7002 28.9088 18.7551 28.8542C18.7551 28.7997 18.7551 28.7997 18.7002 28.7451C18.5906 28.636 18.2066 28.6906 18.1519 28.7451C18.1519 28.7451 18.1519 28.7451 18.1519 28.7997C18.2066 28.8542 18.3163 28.9088 18.426 28.9633C18.4809 28.9633 18.5906 29.0178 18.6454 28.9633ZM18.6454 28.7997C18.6454 28.9088 18.6454 28.9088 18.5906 28.9088C18.5357 28.9633 18.3712 28.9088 18.2066 28.7451C18.3712 28.7451 18.5906 28.7451 18.6454 28.7997Z" fill="#EF4D25"/>
<path d="M18.1527 28.8001C18.3172 28.8001 18.5366 28.6365 18.5914 28.4729C18.5914 28.4183 18.5914 28.3638 18.5366 28.3638C18.4817 28.3638 18.4269 28.3638 18.4269 28.3638C18.2075 28.4183 18.0978 28.7456 18.1527 28.8001C18.0978 28.7456 18.0978 28.7456 18.1527 28.8001C18.0978 28.8001 18.0978 28.8001 18.1527 28.8001ZM18.4817 28.4183C18.5366 28.4183 18.5366 28.4729 18.5366 28.4729C18.5366 28.582 18.3172 28.691 18.2075 28.7456C18.2623 28.6365 18.3172 28.4729 18.4269 28.4183C18.4269 28.4183 18.4269 28.4183 18.4817 28.4183Z" fill="#EF4D25"/>
<path opacity="0.2" d="M17.0008 26.127H18.1525L18.0428 27.5997H16.946L17.0008 26.127Z" fill="black"/>
<path d="M11.462 14.4544C11.462 14.4544 19.6329 15.2181 19.3039 17.6181C18.8652 21.0544 18.5361 27.1635 18.5361 27.1635L16.4523 27.2181C16.4523 27.2181 15.6846 21.8726 16.1232 18.3272C14.0394 18.3272 9.43296 18.4363 8.61036 17.3454C7.67807 16.0908 8.11682 14.3999 8.11682 14.3999H11.462V14.4544Z" fill="#263238"/>
<path d="M16.2878 27.327L18.7556 27.2179L18.8653 26.127L16.1233 26.2906L16.2878 27.327Z" fill="#EF4D25"/>
<path d="M13.2716 7.41818C13.2716 7.63636 13.3265 7.85455 13.3265 8.01818C13.3265 8.23636 13.3813 8.4 13.4362 8.61818C13.491 9 13.6006 9.4364 13.6554 9.8182C13.7651 10.2 13.8748 10.6364 13.9845 11.0182C14.1491 11.4 14.3136 11.8364 14.5329 12.2727C14.6426 12.4909 14.8071 12.7091 15.0265 12.8727C15.0813 12.9273 15.1362 12.9818 15.191 12.9818C15.2458 13.0364 15.3006 13.0364 15.3555 13.0909C15.4651 13.1455 15.5748 13.2 15.6845 13.2545C16.1232 13.4727 16.5071 13.6364 16.9458 13.7455C17.1651 13.8 17.3845 13.8545 17.5491 13.9091C17.7683 13.9636 17.9877 14.0182 18.1523 14.0182C18.5909 14.0727 18.9749 14.1273 19.4135 14.1273C19.6329 14.1273 19.8523 13.9636 19.8523 13.7455C19.8523 13.5818 19.7426 13.3636 19.578 13.3091C18.8652 13.0909 18.0974 12.8182 17.4394 12.4909C17.1103 12.3273 16.7813 12.1636 16.5071 12C16.4523 11.9455 16.3974 11.8909 16.3426 11.8364L16.2877 11.7818L16.2329 11.7273C16.178 11.6727 16.0683 11.5636 16.0136 11.4C15.8491 11.1273 15.7394 10.8 15.6297 10.4727C15.52 10.1455 15.4651 9.7636 15.3555 9.3818C15.3006 9 15.191 8.61818 15.1362 8.29091C15.0813 7.90909 15.0265 7.52727 14.9716 7.2C14.9168 6.76364 14.478 6.38182 14.0394 6.43636C13.6006 6.54545 13.2168 6.92727 13.2716 7.41818Z" fill="#EF4D25"/>
<path d="M19.4129 13.2002L20.0162 13.2547L19.5226 14.4002C19.5226 14.4002 18.4259 14.4002 18.4808 13.8547L18.7 13.582C18.8646 13.3638 19.1388 13.2002 19.4129 13.2002Z" fill="#FF8B7B"/>
<path d="M20.73 13.3089L20.1816 14.3453H19.5784L20.0719 13.2544L20.73 13.3089Z" fill="#FF8B7B"/>
<path d="M13.3813 5.67266L12.1748 5.45448L11.1878 5.29084C11.0233 5.29084 10.9136 5.2363 10.7491 5.29084C9.98131 5.34539 9.37808 5.89084 9.15871 6.59994C8.93944 7.47266 8.72007 8.50903 8.55549 9.4363C8.33621 10.7454 8.22652 12.6545 8.17163 14.4545H13.9297C14.0394 11.2363 14.7523 9.1636 14.9717 7.90903C15.1362 7.09084 14.6974 6.32721 13.9845 5.99993L13.3813 5.67266Z" fill="#EF4D25"/>
<path d="M13.9297 6.38188C13.9297 6.92734 13.82 8.78188 13.2168 9.8728C13.1071 8.89097 11.9006 5.83643 11.9006 5.83643L13.9297 6.38188Z" fill="#253137"/>
<path opacity="0.3" d="M8.44576 10.3089V10.2543C8.44576 10.1998 8.44576 10.1998 8.44576 10.1453C8.44576 10.0907 8.44576 10.0362 8.44576 9.9816C8.44576 9.9271 8.44576 9.8725 8.44576 9.8725C8.44576 9.818 8.44576 9.7634 8.44576 9.7634C8.44576 9.7089 8.44576 9.7089 8.44576 9.6543C8.44576 9.5998 8.44576 9.4907 8.50065 9.4362C8.55544 9.218 8.61034 8.94525 8.61034 8.72707C8.66513 8.50889 8.71993 8.23616 8.77482 8.01798C8.77482 7.90889 8.82961 7.7998 8.82961 7.69071C8.82961 7.63616 8.82961 7.63616 8.82961 7.58161C8.82961 7.52707 8.88451 7.47252 8.88451 7.36343C8.88451 7.30889 8.8845 7.25434 8.9393 7.1998C8.9393 7.1998 8.9393 7.1998 8.9393 7.14525C8.99419 6.92707 9.04898 6.76343 9.10388 6.54525L9.98127 6.10889C9.87158 6.4907 9.7619 6.87252 9.7071 7.30889C9.81679 7.36343 9.92638 7.41798 9.98127 7.52707C10.2006 7.6907 10.2006 8.07252 9.98127 8.56343C9.37804 9.8725 9.10388 11.2907 9.04898 12.7089C9.04898 13.3089 8.99419 13.8543 8.99419 14.4543H8.1167C8.17159 13.0362 8.28128 11.5089 8.44576 10.3089Z" fill="black"/>
<path d="M12.6138 3.27295L13.1073 3.98204L13.7653 4.96386C13.7106 4.96386 13.6009 5.12749 13.5461 5.23659C13.4364 5.45477 13.3267 5.67295 13.8202 6.00022C13.9299 6.05477 13.9299 6.2184 13.9299 6.32749C13.875 6.49113 13.8202 6.65477 13.2718 6.54568C12.6138 6.43659 12.175 6.10931 11.8461 5.78204C11.6815 5.6184 11.6815 5.45477 11.9009 5.29113C12.3944 4.85477 12.5589 3.98204 12.6138 3.27295Z" fill="#FF8B7B"/>
<path d="M13.7645 6.65456L13.4355 6.87275L12.8323 6.65456C12.9968 6.54547 13.1064 6.43638 13.3258 6.38184C13.5452 6.43638 13.6549 6.54547 13.7645 6.65456Z" fill="white"/>
<path d="M13.3815 6.38198C13.1072 6.49107 12.9975 6.70926 12.8879 6.98198C12.8879 6.98198 11.6266 6.05471 11.5718 5.40017C11.6266 5.18198 11.9556 5.23653 11.9556 5.23653C11.9556 5.23653 12.3395 5.94562 13.3815 6.38198Z" fill="#253137"/>
<path d="M13.3811 6.38194C13.6553 6.49103 13.765 6.70921 13.765 6.98194C13.765 6.98194 14.3133 6.3274 13.8746 5.83649C13.765 5.78194 13.4908 5.67285 13.4908 5.67285C13.4908 5.67285 13.6005 6.00012 13.3811 6.38194Z" fill="#253137"/>
<path d="M13.3264 6.76367C13.3264 6.76367 13.4361 6.76367 13.4909 6.76367C13.5457 6.87276 13.6005 8.01822 13.6554 8.61822C13.5457 9 13.4361 9.3273 13.3264 9.6546V9.7091C13.3264 9.7637 13.2716 9.7637 13.2716 9.8182C13.2716 9.5455 13.1619 9.1637 12.9973 8.67276C13.107 8.01822 13.3264 6.76367 13.3264 6.76367Z" fill="white"/>
<path opacity="0.2" d="M13.6003 4.79991L13.2165 4.09082C13.2165 4.09082 13.2165 4.14537 13.1616 4.14537C13.1068 4.19991 13.1068 4.309 13.0519 4.41809C12.9971 4.74537 13.2165 5.18173 13.4906 5.39991C13.4906 5.39991 13.4906 5.34537 13.5455 5.34537C13.6003 5.23628 13.71 5.12718 13.71 5.07264L13.6003 4.79991Z" fill="black"/>
<path d="M15.6289 3.27247C15.7385 2.83611 15.0256 2.23611 15.0256 2.23611L15.8482 1.96338C16.2321 2.18156 15.9579 2.9452 15.6289 3.27247Z" fill="#263238"/>
<path d="M12.7774 2.01814C12.558 3.10905 12.3936 3.70905 12.8323 4.41814C13.4355 5.4545 14.9162 5.34541 15.4097 4.36359C15.9032 3.43632 16.1226 1.79996 15.1903 1.09087C14.258 0.381777 12.9968 0.927227 12.7774 2.01814Z" fill="#FF8B7B"/>
<path d="M12.778 3.10895L13.3265 2.94531V2.29077C13.3265 2.29077 13.9845 1.90895 13.8749 1.47259C13.82 1.14531 13.6555 0.708951 13.6555 0.708951C13.6555 0.708951 12.6135 0.654401 12.2845 0.763491C12.3394 0.818041 12.5588 1.03622 12.5588 1.03622C12.5588 1.03622 12.12 1.30895 11.9006 1.63622C12.0652 1.63622 12.2845 1.79986 12.2845 1.79986C12.2845 1.79986 12.12 2.72713 12.778 3.10895Z" fill="#263238"/>
<path d="M13.9838 0C13.5999 0.21818 13.8192 0.65455 13.8192 0.65455H12.7773C12.8321 0.38182 13.7096 0 13.9838 0Z" fill="#263238"/>
<path d="M13.5452 1.69105C13.6 1.90923 14.4774 2.12741 15.2452 2.18196C15.7387 2.18196 16.3419 1.96378 16.3419 1.96378C16.3419 1.96378 16.2322 1.80014 15.9581 1.69105C16.3967 1.58196 16.9999 1.20014 17.1645 0.872867C16.7258 0.709227 16.4516 0.763778 16.1225 0.818318C16.5064 0.491048 16.5064 0.0546875 16.5064 0.0546875C16.5064 0.0546875 14.5322 0.818318 13.8193 0.491048C12.9967 0.163778 12.3935 0.818318 12.9419 1.30923C13.4903 1.7456 13.5452 1.69105 13.5452 1.69105Z" fill="#263238"/>
<path d="M12.1746 2.78169C12.1746 3.05442 12.2842 3.2726 12.3939 3.43624C12.6132 3.65442 12.8875 3.49078 12.9972 3.16351C13.052 2.89078 12.9972 2.50896 12.7229 2.34533C12.4487 2.29078 12.1746 2.50896 12.1746 2.78169Z" fill="#FF8B7B"/>
<path d="M14.478 3.0002C14.4232 3.10929 14.478 3.16384 14.5329 3.16384C14.5877 3.16384 14.6426 3.10929 14.6974 3.05475C14.7523 2.94566 14.6974 2.89111 14.6426 2.89111C14.5877 2.89111 14.478 2.94566 14.478 3.0002Z" fill="#263238"/>
<path d="M15.4646 3.32735C15.4097 3.43644 15.4646 3.49099 15.5194 3.49099C15.5743 3.49099 15.6291 3.43644 15.684 3.3819C15.7388 3.27281 15.6839 3.21826 15.6291 3.21826C15.5194 3.21826 15.4646 3.27281 15.4646 3.32735Z" fill="#263238"/>
<path d="M15.1358 3.32715C15.1358 3.32715 15.1358 3.81806 15.2454 4.09078C15.0809 4.14533 14.8616 3.98169 14.8616 3.98169L15.1358 3.32715Z" fill="#A02724"/>
<path d="M14.5326 4.30892C14.2036 4.19983 14.094 3.9271 14.094 3.9271V3.87256H14.1488C14.1488 3.87256 14.2585 4.19983 14.6972 4.25438C14.6972 4.25438 14.6972 4.25438 14.6972 4.30892C14.6972 4.30892 14.6972 4.30892 14.6423 4.30892C14.5875 4.30892 14.5326 4.30892 14.5326 4.30892Z" fill="#263238"/>
<path d="M14.2589 2.50883C14.2041 2.45428 14.2041 2.45428 14.2589 2.39974C14.533 2.2361 14.7524 2.34519 14.7524 2.34519C14.7524 2.34519 14.8073 2.39974 14.7524 2.39974C14.7524 2.39974 14.6976 2.45428 14.6976 2.39974C14.6976 2.45428 14.533 2.39974 14.2589 2.50883C14.3138 2.50883 14.2589 2.50883 14.2589 2.50883Z" fill="#263238"/>
<path d="M15.6294 2.83628C15.6294 2.78174 15.6842 2.78174 15.6842 2.78174C15.9585 2.89083 16.0132 3.10901 16.0132 3.16356C16.0132 3.16356 16.0132 3.2181 15.9585 3.2181C15.9036 3.2181 15.9036 3.2181 15.9036 3.16356C15.9036 3.16356 15.9036 2.94537 15.6294 2.83628C15.6294 2.89083 15.6294 2.83628 15.6294 2.83628Z" fill="#263238"/>
<path d="M9.4325 6.05435C9.26802 6.21799 9.15834 6.38162 9.04865 6.54526C8.93896 6.7089 8.82928 6.87253 8.71959 7.03617C8.50032 7.36344 8.28094 7.69071 8.06157 8.01799C7.8422 8.34526 7.67772 8.72708 7.45835 9.1089C7.29387 9.4907 7.12929 9.8725 7.0196 10.3089C6.96481 10.5271 6.90991 10.7998 6.90991 11.0725C6.90991 11.3453 6.96481 11.618 7.0196 11.8362C7.12929 12.2725 7.34866 12.7089 7.56803 13.0362C7.67772 13.1998 7.78741 13.3634 7.89709 13.5816C8.00678 13.7453 8.11636 13.9089 8.28094 14.0725C8.55511 14.3998 8.82928 14.6725 9.10354 14.9453C9.26802 15.1089 9.54219 15.1089 9.70677 14.9453C9.81646 14.7816 9.87125 14.618 9.76156 14.4544C9.37771 13.8544 8.99386 13.1453 8.71959 12.5453C8.61 12.218 8.50032 11.8907 8.44542 11.618C8.44542 11.4544 8.39063 11.3453 8.44542 11.2362C8.44542 11.1271 8.50032 11.018 8.55511 10.8544C8.6648 10.5816 8.77448 10.2544 8.93896 9.9271C9.10354 9.5998 9.26802 9.3271 9.4874 8.99981C9.70677 8.67253 9.87125 8.39981 10.0906 8.07253L10.4197 7.63617C10.5293 7.47253 10.639 7.3089 10.7486 7.1998C11.0229 6.81799 10.968 6.32708 10.5842 5.9998C10.2551 5.61799 9.76156 5.67253 9.4325 6.05435Z" fill="#EF4D25"/>
<path d="M21.3878 15.1091L10.7491 14.6182C10.5845 14.6182 10.4749 14.7273 10.4749 14.8363L21.662 15.3273C21.6072 15.2182 21.4975 15.1091 21.3878 15.1091Z" fill="#407BFF"/>
<g opacity="0.6">
<path opacity="0.6" d="M21.3878 15.1091L10.7491 14.6182C10.5845 14.6182 10.4749 14.7273 10.4749 14.8363L21.662 15.3273C21.6072 15.2182 21.4975 15.1091 21.3878 15.1091Z" fill="white"/>
</g>
<path d="M23.0876 10.2545L15.5198 9.92725C15.4101 9.92725 15.3553 9.98185 15.3005 10.0909L13.8198 14.6182C13.765 14.7272 13.8198 14.7818 13.9295 14.7818L21.4973 15.1091C21.607 15.1091 21.6618 15.0545 21.7166 14.9454L23.1973 10.4182C23.1973 10.3091 23.1424 10.2545 23.0876 10.2545Z" fill="#407BFF"/>
<path opacity="0.6" d="M23.0876 10.2545L15.5198 9.92725C15.4101 9.92725 15.3553 9.98185 15.3005 10.0909L13.8198 14.6182C13.765 14.7272 13.8198 14.7818 13.9295 14.7818L21.4973 15.1091C21.607 15.1091 21.6618 15.0545 21.7166 14.9454L23.1973 10.4182C23.1973 10.3091 23.1424 10.2545 23.0876 10.2545Z" fill="white"/>
<path opacity="0.5" d="M15.3005 10.0909L13.8198 14.6182C13.765 14.7272 13.8198 14.7818 13.9295 14.7818L15.465 9.92725C15.4101 9.92725 15.3005 9.98185 15.3005 10.0909Z" fill="#407BFF"/>
<path opacity="0.5" d="M13.5459 14.7273L10.7491 14.6182C10.5845 14.6182 10.4749 14.7273 10.4749 14.8363L13.7652 15C13.7652 14.8363 13.6556 14.7273 13.5459 14.7273Z" fill="#407BFF"/>
<path d="M9.98098 14.3452L10.6939 14.4543L9.98098 15.4361C9.98098 15.4361 8.82932 15.2724 8.93901 14.727L9.15838 14.5088C9.37775 14.3452 9.70681 14.2906 9.98098 14.3452Z" fill="#FF8B7B"/>
<path d="M11.5714 14.7273L10.6939 15.491L9.98096 15.4364L10.6939 14.4546L11.5714 14.7273Z" fill="#FF8B7B"/>
<path d="M87.2486 11.6181C87.0295 11.3454 87.1933 10.909 87.4678 10.6909C87.7966 10.5272 88.1806 10.5272 88.4551 10.7454C88.7286 10.9636 88.8391 11.2909 88.7839 11.6181C88.7286 11.8363 88.3998 12.3272 88.0157 12.109" fill="#263238"/>
<path d="M85.1643 13.5272C84.3968 12.0545 86.042 11.1818 86.9197 11.3999C87.7964 11.6181 88.1804 11.9999 88.3453 12.5454C88.5102 13.0908 88.5102 13.6908 88.3453 14.2363C88.2357 14.509 88.0709 14.7818 87.7964 14.8363" fill="#263238"/>
<path d="M87.5219 12.2727C87.6868 12.2727 87.7964 12.3818 87.7964 12.5455L87.8517 16.4182C87.8517 16.8545 87.1932 17.1818 86.6995 17.1818C86.2059 17.1818 86.1516 16.9636 86.1516 16.5273C86.0963 15.8182 86.0963 15.5455 86.0963 15.5455C86.0963 15.5455 85.4388 15.4909 85.2739 14.6727C85.1643 14.2909 85.1643 13.6364 85.1643 13.0909C85.1643 12.6 85.4931 12 85.9867 12L87.5219 12.2727Z" fill="#FFBE9D"/>
<path d="M85.3835 13.5271C85.3835 13.5816 85.4378 13.6362 85.4931 13.6362C85.5474 13.6362 85.6027 13.5816 85.6027 13.5271C85.6027 13.4725 85.5474 13.418 85.4931 13.418C85.4378 13.418 85.3835 13.4725 85.3835 13.5271Z" fill="#263238"/>
<path d="M85.3293 13.3635C85.3293 13.3635 85.4389 13.3089 85.5485 13.3089C85.6581 13.3089 85.7677 13.3635 85.7677 13.3635C85.7677 13.3635 85.7677 13.3089 85.7134 13.3089C85.6581 13.2544 85.6038 13.2544 85.5485 13.2544C85.4942 13.2544 85.4389 13.2544 85.3846 13.3089C85.3293 13.3089 85.3293 13.3635 85.3293 13.3635Z" fill="#263238"/>
<path d="M86.4263 13.4729C86.4263 13.5274 86.4806 13.582 86.5359 13.582C86.5911 13.582 86.6454 13.5274 86.6454 13.4729C86.6454 13.4183 86.5911 13.3638 86.5359 13.3638C86.4806 13.3638 86.4263 13.4183 86.4263 13.4729Z" fill="#263238"/>
<path d="M86.4263 13.3088C86.4263 13.3088 86.5359 13.2543 86.6454 13.2543C86.755 13.2543 86.8646 13.3088 86.8646 13.3088C86.8646 13.3088 86.8646 13.2543 86.8103 13.2543C86.755 13.1997 86.7007 13.1997 86.6454 13.1997C86.5901 13.1997 86.5359 13.1997 86.4806 13.2543C86.4263 13.3088 86.4263 13.3088 86.4263 13.3088Z" fill="#263238"/>
<path d="M86.041 14.1817C85.9868 14.1817 85.9315 14.1817 85.8772 14.1817C85.8219 14.1817 85.8219 14.1817 85.8219 14.1817C85.8219 14.1271 85.8219 14.1271 85.8219 14.0726L85.8772 13.8544C85.9315 13.6908 85.9868 13.4726 86.041 13.2544C85.9315 13.418 85.8772 13.6362 85.8219 13.7998L85.7676 14.018C85.7676 14.0726 85.7676 14.0726 85.7676 14.1271L85.8219 14.1817H85.8772C85.9315 14.1817 85.9868 14.1817 86.041 14.1817Z" fill="#263238"/>
<path d="M86.0422 15.4908C86.4263 15.4908 86.8103 15.3818 87.1391 15.1636C87.1391 15.1636 86.9199 15.709 86.0422 15.709V15.4908Z" fill="#EB996E"/>
<path d="M86.0975 14.4543C86.1518 14.3998 86.2071 14.3452 86.2614 14.3452C86.3167 14.3452 86.371 14.3452 86.371 14.3998C86.4263 14.4543 86.4263 14.5089 86.371 14.5089C86.3167 14.5634 86.2614 14.5634 86.2071 14.5634C86.1518 14.5634 86.0975 14.5089 86.0422 14.5089C86.1518 14.5089 86.1518 14.5089 86.0975 14.4543Z" fill="#EB996E"/>
<path d="M86.4262 14.2363C86.4262 14.2363 86.4262 14.3454 86.3166 14.4545C86.207 14.5636 86.0974 14.5636 86.0974 14.5636C86.0974 14.5636 86.1517 14.5636 86.207 14.5636C86.2613 14.5636 86.3709 14.5091 86.3709 14.5091C86.4262 14.4545 86.4815 14.4 86.4815 14.3454C86.4262 14.2363 86.4262 14.2363 86.4262 14.2363Z" fill="#263238"/>
<path d="M86.3708 13.1457C86.3708 13.2003 86.4804 13.1457 86.6453 13.1457C86.7549 13.1457 86.8645 13.2003 86.9198 13.1457C86.9198 13.1457 86.9198 13.0912 86.8645 13.0912C86.8102 13.0366 86.7549 13.0366 86.6996 13.0366C86.6453 13.0366 86.5357 13.0366 86.4804 13.0912C86.3709 13.0912 86.3708 13.0912 86.3708 13.1457Z" fill="#263238"/>
<path d="M85.3292 13.0363C85.3292 13.0363 85.4388 13.0363 85.4941 13.0363C85.6037 13.0363 85.658 13.0363 85.658 13.0363C85.658 13.0363 85.658 12.9818 85.6037 12.9818C85.5484 12.9818 85.4941 12.9272 85.4388 12.9272C85.3835 12.9272 85.3292 12.9272 85.2739 12.9818C85.3292 12.9818 85.3292 13.0363 85.3292 13.0363Z" fill="#263238"/>
<path d="M85.3845 12.0001C85.3293 12.2728 85.4941 12.6001 85.7133 12.7637C85.8772 12.8728 86.0421 12.9273 86.2069 12.9273L86.5357 13.0364C86.7549 13.091 87.0293 13.1455 87.2485 13.1455C87.2485 13.4182 87.1942 13.5819 87.3581 13.8001C87.4677 14.0182 87.6869 14.1273 87.907 14.0728C88.0166 13.5273 88.0166 13.0364 88.0166 12.491C88.0166 12.3273 88.0166 12.2182 87.9613 12.1092C87.8517 11.9455 87.5773 11.891 87.3581 11.891L86.3708 11.8364C86.2069 11.8364 86.0421 11.8364 85.8772 11.8364C85.658 11.8364 85.5484 11.891 85.3845 12.0001Z" fill="#263238"/>
<path d="M88.5093 13.1452C88.455 13.1452 88.3997 13.1452 88.3454 13.1452C88.2901 13.1452 88.2358 13.0907 88.2358 13.0361C88.1805 12.9816 88.1262 12.9271 88.071 12.8725C88.0167 12.818 87.9614 12.7634 87.9061 12.7089C87.7965 12.6543 87.7422 12.5998 87.6326 12.5998C87.4134 12.5452 87.1933 12.4907 86.9741 12.5452C86.7549 12.5452 86.5357 12.5452 86.2613 12.4907C86.0964 12.4361 85.8772 12.3816 85.7676 12.218C85.7133 12.1634 85.658 12.1089 85.658 12.0543C85.658 11.9998 85.6038 11.9452 85.6038 11.8907C85.6038 11.8361 85.6038 11.7816 85.6038 11.7271C85.6038 11.7816 85.6038 11.8361 85.6038 11.8361C85.6038 11.8907 85.658 11.9452 85.658 11.9998C85.7133 12.0543 85.7133 12.1089 85.7676 12.1634C85.8772 12.2725 86.0964 12.3816 86.2613 12.4361C86.4804 12.4907 86.6996 12.4907 86.9741 12.4907C87.1933 12.4907 87.4134 12.4907 87.6869 12.5452C87.7965 12.5998 87.8518 12.5998 87.9614 12.6543C88.0167 12.7089 88.1262 12.7634 88.1262 12.818C88.1805 12.8725 88.2358 12.927 88.2358 12.9816C88.2901 13.0361 88.2901 13.0361 88.3454 13.0907C88.3997 13.1452 88.455 13.1452 88.5093 13.1452Z" fill="#455A64"/>
<path d="M88.3453 12.6543C88.3453 12.5998 88.3453 12.5998 88.3453 12.5452C88.29 12.4361 88.1804 12.3816 88.0709 12.3271C87.907 12.2725 87.7421 12.218 87.5772 12.218C87.3581 12.218 87.1932 12.218 86.974 12.218C86.7548 12.218 86.5899 12.218 86.3708 12.218C86.2069 12.218 86.042 12.1089 85.9324 12.0543C85.8228 11.9998 85.7675 11.8907 85.7133 11.8361L85.658 11.7816C85.658 11.7816 85.658 11.7816 85.658 11.7271C85.658 11.7271 85.658 11.7816 85.7133 11.8361C85.7675 11.9452 85.8771 11.9998 85.9324 12.0543C86.0973 12.1634 86.2069 12.218 86.3708 12.218C86.5899 12.218 86.7548 12.2725 86.974 12.218C87.1932 12.218 87.3581 12.218 87.5772 12.218C87.7421 12.218 87.907 12.2725 88.0709 12.3271C88.1804 12.3816 88.29 12.4361 88.3453 12.5452C88.3453 12.5452 88.3996 12.5998 88.3453 12.6543Z" fill="#455A64"/>
<path d="M88.7286 11.0728V11.1273C88.7286 11.1818 88.7286 11.2364 88.7286 11.2909C88.6743 11.4546 88.5094 11.5637 88.3998 11.6728C88.3445 11.7273 88.2349 11.7273 88.1254 11.7818C88.0711 11.7818 87.9615 11.7818 87.9062 11.7818C87.8509 11.7818 87.7966 11.7818 87.7413 11.7818H87.687C87.687 11.7818 87.7413 11.7818 87.9062 11.7818C87.9615 11.7818 88.0711 11.7818 88.1254 11.7818C88.2349 11.7818 88.2902 11.7273 88.3998 11.6728C88.5647 11.6182 88.6743 11.4546 88.7286 11.3455C88.7286 11.2364 88.7286 11.1818 88.7286 11.0728Z" fill="#455A64"/>
<path d="M88.3996 10.7456C88.4549 10.7456 88.4549 10.7456 88.3996 10.7456C88.3996 10.8547 88.3996 10.9092 88.3453 10.9638C88.29 11.1274 88.2348 11.2911 88.0709 11.4002C87.9613 11.5092 87.7964 11.6183 87.6315 11.6729C87.5772 11.6729 87.5219 11.6729 87.4676 11.7274H87.4124C87.4124 11.7274 87.4677 11.7274 87.6315 11.6729C87.9613 11.5638 88.1805 11.3456 88.29 11.0183C88.3996 10.8002 88.3996 10.7456 88.3996 10.7456Z" fill="#455A64"/>
<path d="M88.3444 14.2362C88.3444 14.1817 88.3444 14.1271 88.3444 14.0726C88.3444 13.9089 88.2901 13.7999 88.2348 13.6362C88.1805 13.5271 88.1252 13.4726 88.0699 13.3635C88.0156 13.2544 87.906 13.1999 87.7964 13.1453C87.5773 13.0362 87.2475 13.0908 86.9741 13.0362C86.6996 13.0362 86.4251 12.9817 86.1506 12.8726C85.9315 12.818 85.7676 12.6544 85.6027 12.4908C85.4931 12.3817 85.4378 12.218 85.3835 12.1089C85.3835 12.0544 85.3835 12.0544 85.3835 11.9999V11.9453C85.3835 11.9453 85.3835 11.9999 85.4378 12.1089C85.4931 12.2726 85.5474 12.3817 85.657 12.4908C85.8219 12.6544 85.9868 12.7635 86.2059 12.8726C86.4804 12.9817 86.7539 13.0362 87.0283 13.0362C87.3028 13.0362 87.6316 13.0362 87.8507 13.1453C87.9603 13.1999 88.0699 13.2544 88.1805 13.3635C88.2348 13.418 88.2901 13.5271 88.3444 13.6362C88.3997 13.7999 88.3997 13.9089 88.3997 14.0726C88.3444 14.1271 88.3444 14.1817 88.3444 14.2362Z" fill="#455A64"/>
<path d="M88.1805 12.1635C88.1253 12.1089 88.1253 12.1089 88.07 12.0544C87.9061 11.8362 87.6316 11.6726 87.4124 11.618C87.3571 11.618 87.3029 11.5635 87.2476 11.5635C87.3029 11.5635 87.3571 11.5635 87.4124 11.618C87.6869 11.7271 87.9061 11.8907 88.1253 12.1089C88.07 12.0544 88.1253 12.1089 88.1805 12.1635Z" fill="black"/>
<path d="M87.6879 13.582C87.6879 13.582 88.1262 13.3638 88.1262 13.8547C88.1815 14.3456 87.6326 14.2911 87.6326 14.2366C87.6879 14.2366 87.6879 13.582 87.6879 13.582Z" fill="#FFBE9D"/>
<path d="M87.7964 14.0726C87.7964 14.0726 87.8517 14.0726 87.7964 14.0726C87.8517 14.0726 87.8517 14.0726 87.906 14.0726C87.9613 14.018 88.0156 13.9635 88.0156 13.909C88.0156 13.8544 88.0156 13.7999 87.9613 13.7999C87.9613 13.7453 87.906 13.7453 87.906 13.7453H87.8517C87.8517 13.7453 87.8517 13.7453 87.8517 13.6908C87.8517 13.6908 87.8517 13.6908 87.8517 13.6362H87.906C87.9613 13.6362 87.9613 13.6908 88.0156 13.6908C88.0156 13.7453 88.0708 13.7999 88.0708 13.7999C88.0708 13.909 88.0156 13.9635 87.9613 14.018C87.906 14.1271 87.8517 14.1271 87.7964 14.0726Z" fill="#EB996E"/>
<path d="M80.3936 17.9455C80.3936 17.9455 80.0645 17.291 79.9549 17.2364C79.8452 17.1819 79.1323 16.9092 79.0775 16.9637C79.0226 16.9637 78.1452 17.1274 78.2 17.2364C78.3097 17.3455 78.9129 17.2364 78.9129 17.2364L79.0226 17.291C79.0226 17.291 78.4742 17.4001 78.3645 17.4546C78.2549 17.5092 78.3097 17.6183 78.4193 17.6183C78.529 17.6183 78.9678 17.5092 79.0226 17.5092C79.0775 17.5092 78.529 17.6183 78.4742 17.6728C78.4193 17.7274 78.3645 17.8364 78.4742 17.8364C78.529 17.8364 79.0226 17.6728 79.0226 17.6728C78.8581 17.7274 78.7484 17.7819 78.5839 17.891C78.529 17.891 78.529 17.9455 78.5839 18.0001C78.5839 18.0001 78.6387 18.0546 78.6936 18.0001C78.7484 18.0001 79.0226 17.8364 79.1323 17.8364C79.1323 17.8364 79.1872 17.8364 79.2968 18.0001C79.3516 18.1637 79.8452 18.491 79.8452 18.491L80.3936 17.9455Z" fill="#FFBE9D"/>
<path d="M80.2291 17.9456C80.1743 18.0002 80.0646 18.0002 80.0099 17.9456C79.955 17.8911 79.9002 17.8366 79.8453 17.8366C79.6808 17.7275 79.4066 17.7275 79.242 17.6184L79.1873 17.5638C79.1873 17.5093 79.242 17.5093 79.242 17.5093H79.955" fill="#FFBE9D"/>
<path d="M79.9547 17.5093H79.8998C79.845 17.5093 79.7901 17.5093 79.6804 17.5093H79.3515H79.2418C79.1869 17.5093 79.1869 17.5093 79.1321 17.5093V17.5638C79.1321 17.5638 79.1321 17.6184 79.1869 17.6184C79.2418 17.6184 79.2418 17.6729 79.2966 17.6729C79.4062 17.7275 79.5707 17.7275 79.6804 17.782C79.7353 17.782 79.7901 17.8366 79.845 17.8366C79.8998 17.8366 79.8998 17.8911 79.9547 17.9456C80.0095 18.0002 80.0644 18.0002 80.174 18.0002C80.2288 18.0002 80.2288 17.9456 80.2288 17.9456H80.174C80.1192 17.9456 80.0095 17.9456 80.0095 17.8911C79.9547 17.8366 79.9547 17.8365 79.8998 17.782C79.845 17.7275 79.7901 17.7275 79.7353 17.7275C79.6256 17.6729 79.4611 17.6729 79.3515 17.6184C79.2966 17.6184 79.2966 17.5638 79.2418 17.5638C79.2418 17.5638 79.1869 17.5093 79.2418 17.5093H79.2966H79.4062H79.7353C79.845 17.5093 79.8998 17.5093 79.9547 17.5093Z" fill="#EB996E"/>
<path d="M78.2544 17.2362C78.3093 17.2362 78.3641 17.2907 78.419 17.2907C78.4738 17.2907 78.5287 17.2907 78.5835 17.2907C78.6383 17.2907 78.7479 17.2907 78.8028 17.2362H78.9673C79.077 17.2907 79.2416 17.3453 79.3512 17.3453C79.2416 17.2907 79.1319 17.2362 78.9673 17.1816H78.8028L78.5835 17.2362C78.5287 17.2362 78.4738 17.2362 78.419 17.2362C78.3641 17.2362 78.3093 17.2362 78.2544 17.2362Z" fill="#EB996E"/>
<path d="M83.0259 36.3819L83.8485 37.8546C83.8485 37.8546 82.5873 39.1638 82.6969 39.4365L85.658 38.0182L84.5068 35.6729L83.0259 36.3819Z" fill="black"/>
<path d="M84.6709 37.2544C84.7262 37.2544 84.7815 37.3089 84.8357 37.3635C84.8357 37.418 84.7815 37.4726 84.7262 37.5271C84.6709 37.5271 84.5613 37.4726 84.5613 37.418C84.5613 37.3089 84.6166 37.2544 84.6709 37.2544Z" fill="#E0E0E0"/>
<g opacity="0.6">
<path opacity="0.6" d="M85.6581 37.9638L85.5485 37.7456L82.7516 39.2183C82.7516 39.2183 82.6419 39.3274 82.6967 39.4365L85.6581 37.9638Z" fill="white"/>
</g>
<path d="M83.7937 37.8545C83.7937 37.8545 83.9034 37.8545 83.9581 37.8545C84.0678 37.8545 84.1226 37.909 84.1226 37.909C84.1226 37.909 84.0678 37.7999 83.9581 37.7999C83.8485 37.7454 83.7388 37.7999 83.7937 37.8545Z" fill="#263238"/>
<path d="M83.5198 38.1271C83.5198 38.1271 83.5747 38.1271 83.6844 38.1817C83.7391 38.2362 83.794 38.2908 83.8488 38.2908C83.8488 38.2908 83.8488 38.1817 83.7391 38.1817C83.6295 38.0726 83.5198 38.0726 83.5198 38.1271Z" fill="#263238"/>
<path d="M83.5194 38.5634C83.5194 38.5634 83.5194 38.4543 83.4645 38.3998C83.4097 38.3452 83.3 38.3452 83.3 38.3452C83.3 38.3452 83.3548 38.3998 83.4097 38.4543C83.4645 38.5088 83.5194 38.5634 83.5194 38.5634Z" fill="#263238"/>
<path d="M83.6289 37.4727C83.6289 37.4727 83.6838 37.4181 83.7935 37.4181C83.9032 37.3636 83.958 37.3636 83.958 37.3636C83.958 37.3636 83.8483 37.3091 83.7935 37.3636C83.6838 37.4181 83.6289 37.4727 83.6289 37.4727Z" fill="#263238"/>
<path d="M83.4648 37.2002C83.5196 37.2002 83.5744 37.1456 83.6293 37.1456C83.6841 37.0911 83.739 37.0911 83.739 37.0365C83.739 37.0365 83.7938 36.982 83.7938 36.9274V36.8729C83.7938 36.8184 83.7938 36.8184 83.739 36.8184H83.6841C83.6841 36.8184 83.6293 36.8184 83.6293 36.8729C83.5744 36.8729 83.5744 36.9274 83.5744 36.9274C83.5196 36.982 83.5196 37.0365 83.4648 37.0911C83.4648 37.0911 83.4648 37.1456 83.4648 37.2002C83.4648 37.2002 83.4648 37.1456 83.5196 37.0911C83.5196 37.0365 83.5744 36.982 83.6293 36.9274L83.6841 36.8729C83.6841 36.8729 83.739 36.8184 83.739 36.8729V36.9274C83.739 36.982 83.6841 36.982 83.6841 37.0365C83.6293 37.0911 83.6293 37.1456 83.5744 37.1456C83.5196 37.1456 83.4648 37.2002 83.4648 37.2002Z" fill="#263238"/>
<path d="M83.5198 37.2001C83.5198 37.1455 83.5198 37.091 83.4649 37.0364C83.4649 36.9819 83.4101 36.9273 83.3552 36.8728C83.3552 36.8728 83.3004 36.8183 83.2456 36.8183C83.1907 36.7637 83.1359 36.7637 83.1359 36.8183L83.0811 36.8728V36.9273C83.0811 36.9819 83.1359 36.9819 83.1359 37.0364C83.1907 37.091 83.2456 37.1455 83.3004 37.1455C83.3552 37.1455 83.4101 37.2001 83.5198 37.2001C83.4649 37.1455 83.4101 37.1455 83.3552 37.091C83.3004 37.0364 83.2456 37.0364 83.2456 36.9819C83.2456 36.9819 83.1907 36.9273 83.1907 36.8728C83.1907 36.8183 83.1907 36.8183 83.1907 36.8183H83.2456L83.3004 36.8728C83.3552 36.9273 83.3552 36.9819 83.4101 36.9819C83.4649 37.1455 83.4649 37.2001 83.5198 37.2001Z" fill="#263238"/>
<path d="M83.7941 37.6362L83.4651 39.2726C83.4651 39.2726 81.6554 39.4908 81.6006 39.818L84.8358 40.5271L85.439 38.018L83.7941 37.6362Z" fill="black"/>
<path d="M84.5059 39.3271C84.5612 39.3817 84.6155 39.4362 84.5612 39.4908C84.5059 39.5453 84.4514 39.5999 84.3966 39.5453C84.3418 39.4908 84.2869 39.4362 84.3418 39.3817C84.3966 39.3271 84.4515 39.3271 84.5059 39.3271Z" fill="#E0E0E0"/>
<g opacity="0.6">
<path opacity="0.6" d="M84.8358 40.527L84.8911 40.2543L81.7651 39.6543C81.7651 39.6543 81.6006 39.7088 81.6006 39.7634L84.8358 40.527Z" fill="white"/>
</g>
<path d="M83.4648 39.2183C83.4648 39.2183 83.5196 39.2728 83.6293 39.3274C83.6841 39.3819 83.739 39.491 83.739 39.4364C83.739 39.4364 83.739 39.3274 83.6841 39.2728C83.5745 39.2183 83.4648 39.2183 83.4648 39.2183Z" fill="#263238"/>
<path d="M83.0811 39.3271C83.0811 39.3271 83.1359 39.3816 83.1907 39.4362C83.2455 39.4907 83.2455 39.5998 83.2455 39.5998C83.2455 39.5998 83.3004 39.4907 83.2455 39.4362C83.1907 39.3271 83.0811 39.2725 83.0811 39.3271Z" fill="#263238"/>
<path d="M82.8063 39.6545C82.8063 39.6545 82.8615 39.5999 82.8615 39.4908C82.8615 39.3818 82.7512 39.3272 82.7512 39.3817C82.7512 39.3817 82.7512 39.4363 82.8063 39.5454C82.8063 39.5999 82.8063 39.6545 82.8063 39.6545Z" fill="#263238"/>
<path d="M83.574 38.891C83.574 38.891 83.6288 38.891 83.7385 38.9456C83.8481 38.9456 83.9029 39.0001 83.9029 39.0001C83.9029 39.0001 83.8481 38.9456 83.7385 38.891C83.6288 38.8365 83.574 38.8365 83.574 38.891Z" fill="#263238"/>
<path d="M83.6289 38.5637C83.6838 38.5637 83.7386 38.6182 83.7935 38.6182C83.8483 38.6182 83.9032 38.6182 83.958 38.6182C84.0129 38.6182 84.0129 38.6182 84.0676 38.6182H84.1224C84.1224 38.6182 84.1773 38.5637 84.1224 38.5637L84.0676 38.5091H84.0129C83.958 38.5091 83.958 38.5091 83.9032 38.5091C83.8483 38.5091 83.7935 38.5637 83.7386 38.5637C83.6838 38.5091 83.6289 38.5637 83.6289 38.5637C83.6289 38.5637 83.6838 38.5637 83.7935 38.5091C83.8483 38.4546 83.958 38.4546 84.0676 38.4546C84.1224 38.4546 84.1224 38.4546 84.1224 38.4546C84.1224 38.4546 84.1224 38.4546 84.0676 38.4546C84.0129 38.4546 84.0129 38.4546 83.958 38.5091C83.9032 38.5091 83.8483 38.5091 83.7935 38.5637C83.7386 38.5637 83.6838 38.5637 83.6289 38.5637Z" fill="#263238"/>
<path d="M83.6293 38.5635C83.6293 38.5635 83.6841 38.509 83.6841 38.3999C83.6841 38.3453 83.6841 38.2908 83.6841 38.2363C83.6841 38.1817 83.6841 38.1817 83.6841 38.1272C83.6841 38.0726 83.6293 38.0181 83.5744 38.0181C83.5196 38.0181 83.5196 38.0181 83.5196 38.0726C83.5196 38.0726 83.5196 38.1272 83.4648 38.1272C83.4648 38.1817 83.4648 38.1817 83.4648 38.2363C83.4648 38.2908 83.4648 38.3453 83.5196 38.3999C83.5744 38.509 83.6293 38.5635 83.6293 38.5635C83.6293 38.509 83.5744 38.4544 83.5744 38.3999C83.5744 38.3453 83.5744 38.2908 83.5744 38.2363C83.5744 38.1817 83.5744 38.1817 83.5744 38.1272C83.5744 38.0726 83.6293 38.0726 83.6293 38.0726L83.6841 38.1272C83.6841 38.1817 83.6841 38.1817 83.6841 38.2363C83.6841 38.2908 83.6841 38.3453 83.6841 38.3999C83.6841 38.509 83.6293 38.5635 83.6293 38.5635Z" fill="#263238"/>
<path d="M85.274 22.5816L80.3385 28.7998C79.845 29.3998 79.7353 30.218 79.9547 30.9271L83.5191 38.0725L84.7261 36.0543L82.6965 30.3816L85.3836 27.218L86.59 22.418L85.274 22.5816Z" fill="#FFDEBC"/>
<path d="M83.355 39.0001L85.5485 23.891L85.6581 22.5274L88.3455 22.3638C88.3455 22.3638 89.2775 23.8365 89.3327 24.7092C89.387 25.582 86.8645 31.8001 86.8645 31.8001L86.4805 34.2547L84.9453 39.491L83.355 39.0001Z" fill="#FFDEBC"/>
<path d="M85.6581 22.8546C85.6581 22.8546 85.1645 26.5092 84.5069 30.9273C83.8485 35.4001 83.355 39.0001 83.355 39.0001C83.355 39.0001 83.8485 35.3455 84.5069 30.8728C85.1102 26.4546 85.6581 22.8001 85.6581 22.8546Z" fill="#455A64"/>
<path d="M82.6969 30.4361C82.6969 30.4361 82.642 30.3816 82.5323 30.327C82.2582 30.2179 81.9291 30.1634 81.655 30.2725C81.5453 30.327 81.4905 30.3816 81.4905 30.327C81.5453 30.2725 81.6002 30.2725 81.655 30.2179C81.9291 30.0543 82.2582 30.1089 82.5323 30.2725C82.5872 30.327 82.642 30.3816 82.6969 30.4361Z" fill="#455A64"/>
<path d="M88.5645 23.3453C88.5645 23.3453 88.5645 23.3453 88.5092 23.3999C88.4549 23.3999 88.3996 23.4544 88.3454 23.4544C88.2348 23.4544 88.1805 23.509 88.0709 23.509C87.9613 23.509 87.8517 23.509 87.7421 23.4544C87.6315 23.4544 87.522 23.3999 87.4124 23.3453C87.3028 23.2908 87.2485 23.2362 87.1932 23.1817C87.1389 23.1272 87.0836 23.0726 87.0836 23.0726C87.0836 23.0181 87.0283 23.0181 87.0283 23.0181C87.0283 23.0181 87.0836 23.0726 87.1932 23.1817C87.2485 23.2362 87.3581 23.2908 87.4124 23.3453C87.522 23.3999 87.6315 23.4544 87.7421 23.4544C87.8517 23.4544 87.9613 23.509 88.0709 23.509C88.1805 23.509 88.2348 23.509 88.3454 23.509C88.4549 23.3453 88.5645 23.3453 88.5645 23.3453Z" fill="#455A64"/>
<path d="M80.6127 32.2361C80.5579 32.1815 80.5579 32.127 80.503 32.0724C80.4482 31.9633 80.3933 31.8543 80.2836 31.6361C80.1739 31.4179 80.0642 31.1997 80.0094 30.9815C79.9547 30.8724 79.8998 30.7088 79.8998 30.5997C79.845 30.4361 79.845 30.327 79.845 30.1633C79.845 29.9997 79.845 29.8906 79.8998 29.727C79.9547 29.6179 79.9547 29.4543 80.0094 29.3452C80.1191 29.127 80.2288 28.9088 80.3385 28.7452C80.4482 28.5815 80.5579 28.4724 80.6127 28.3633C80.6676 28.3088 80.6676 28.3088 80.7224 28.2543C80.7224 28.2543 80.7224 28.2543 80.7772 28.1997C80.7224 28.2543 80.7224 28.3088 80.6676 28.3633C80.6127 28.4724 80.503 28.5815 80.3933 28.7452C80.2836 28.9088 80.1739 29.127 80.0642 29.3452C80.0095 29.4543 79.9547 29.6179 79.9547 29.727C79.8998 29.8906 79.8998 29.9997 79.8998 30.1633C79.8998 30.327 79.8998 30.4361 79.9547 30.5997C80.0095 30.7088 80.0095 30.8724 80.0642 30.9815C80.1739 31.1997 80.2288 31.4179 80.3385 31.6361L80.5579 32.0724L80.6127 32.2361C80.6127 32.1815 80.6127 32.1815 80.6127 32.2361Z" fill="#455A64"/>
<path d="M84.726 16.9634L82.8615 19.0361L80.5035 17.7816L79.6809 18.5997L82.7518 20.6725L84.1229 20.6179L85.2749 18.3816L84.726 16.9634Z" fill="#EF4D25"/>
<path d="M84.0127 18.4909L85.0548 22.6909L88.4549 22.4182L88.8933 19.0909L89.8253 17.6728C89.8253 17.6728 89.6061 16.3637 88.0709 16.3091L87.8517 15.7637L86.042 15.9273L85.8219 16.4182C85.8219 16.4182 84.3417 16.5273 84.3965 17.8364L84.0127 18.4909Z" fill="#EF4D25"/>
<g opacity="0.3">
<path opacity="0.3" d="M84.8909 22.0907C85.4389 22.2543 85.9878 22.1452 86.4262 21.818C86.4804 21.7634 86.5357 21.7089 86.6453 21.7089C86.7549 21.7089 86.8102 21.7089 86.8645 21.7634C87.2486 21.8725 87.6326 21.9271 88.0167 21.9816C88.1262 21.9816 88.2901 21.9816 88.4007 21.9271C88.5103 21.8725 88.6199 21.7634 88.5646 21.5998C87.9614 21.3816 87.4134 21.218 86.7549 21.1089C86.4262 21.0543 86.0974 20.9998 85.8229 21.1089C85.4942 21.1634 85.2197 21.3816 84.9452 21.5452C84.8909 21.5998 84.7814 21.6543 84.7814 21.7089C84.7261 21.818 84.8909 21.9816 84.8909 22.0907Z" fill="black"/>
</g>
<path d="M87.4677 17.6729C87.5773 17.782 88.839 19.9093 88.839 19.9093L86.8102 20.3456L86.7549 21.3275L88.7837 21.6002L89.6614 21.7093C90.0455 21.7638 90.4838 21.6002 90.703 21.2729C90.9775 20.9456 91.0328 20.5093 90.8679 20.1275L89.8263 17.5093L87.4677 17.6729Z" fill="#EF4D25"/>
<path d="M89.387 19.8545C89.387 19.8545 88.839 19.9636 88.0709 20.1272C87.3581 20.2363 86.7549 20.3454 86.7549 20.3454C86.7549 20.3454 87.3028 20.2363 88.0709 20.0727C88.839 19.9636 89.387 19.8545 89.387 19.8545Z" fill="#263238"/>
<path d="M88.8934 19.9636C88.8934 19.9091 88.8391 19.9091 88.8391 19.8545C88.7838 19.8 88.7838 19.6909 88.7295 19.5818C88.6199 19.3091 88.4551 18.9818 88.2902 18.6C88.2359 18.3818 88.1263 18.2181 88.071 18.0545C88.0167 17.8909 87.9614 17.7272 87.9614 17.5636C87.9614 17.4545 88.0167 17.3454 88.1263 17.2909L88.1806 17.2363C88.1806 17.2363 88.1806 17.2363 88.2359 17.2363C88.1806 17.2363 88.1806 17.2909 88.1263 17.2909C88.071 17.3454 88.0167 17.4545 88.0167 17.5636C88.0167 17.7272 88.0167 17.8909 88.1263 18C88.1806 18.1636 88.2902 18.3272 88.3455 18.5454C88.5104 18.9272 88.6742 19.3091 88.7295 19.5272C88.7838 19.6363 88.8391 19.7454 88.8391 19.8545C88.8934 19.8545 88.8934 19.9091 88.8934 19.9636Z" fill="#263238"/>
<path d="M89.9359 21.709C89.8806 21.709 89.8263 21.709 89.8263 21.709C89.7157 21.709 89.6061 21.709 89.4965 21.709C89.2231 21.709 88.7837 21.6544 88.3454 21.5999C87.906 21.5453 87.523 21.4908 87.1932 21.4362L86.8645 21.3817C86.8102 21.3817 86.7549 21.3817 86.7549 21.3271C86.8102 21.3271 86.8645 21.3271 86.8645 21.3271C86.9198 21.3271 87.0836 21.3271 87.1932 21.3817C87.4677 21.4362 87.906 21.4908 88.3454 21.5453C88.7837 21.5999 89.1678 21.6544 89.4965 21.6544H89.8263C89.8806 21.6544 89.9359 21.6544 89.9359 21.709Z" fill="#263238"/>
<path d="M84.6709 20.3456C84.6709 20.2365 84.6709 20.1274 84.6166 19.9638C84.5613 19.8547 84.5613 19.7456 84.507 19.582C84.507 19.5274 84.4517 19.4183 84.507 19.3638C84.507 19.2547 84.507 19.2001 84.5613 19.0911C84.6709 18.8183 84.8358 18.5456 84.9996 18.3274L85.1645 18.1092C85.1645 18.0547 85.2198 18.0547 85.2198 18.0547C85.2198 18.1092 85.2198 18.1092 85.1645 18.1638C85.1102 18.2183 85.1102 18.2729 85.0549 18.382C84.89 18.6547 84.7805 18.8729 84.6166 19.1456C84.5613 19.2001 84.5613 19.3092 84.5613 19.3638C84.5613 19.4183 84.5613 19.5274 84.5613 19.582C84.6166 19.7456 84.6166 19.8547 84.6709 19.9638C84.6709 20.0729 84.7262 20.1274 84.7262 20.2365C84.6709 20.2911 84.6709 20.2911 84.6709 20.3456Z" fill="#263238"/>
<path d="M86.3157 16.5271C86.3157 16.418 86.3157 16.3089 86.3157 16.1998C86.3157 16.0907 86.3157 15.9816 86.3707 15.8726C86.3707 15.9816 86.3707 16.0907 86.3707 16.1998C86.3707 16.3635 86.3707 16.4726 86.3157 16.5271Z" fill="#263238"/>
<path d="M86.9747 16.4726C86.9201 16.2544 86.8645 16.0907 86.8645 15.8726C86.9201 15.9816 86.9201 16.0907 86.9201 16.1453C86.9747 16.2544 87.0303 16.3635 86.9747 16.4726Z" fill="#263238"/>
<path d="M87.5781 16.3635C87.5225 16.1998 87.4679 16.0362 87.4124 15.8726C87.5225 16.0362 87.5781 16.1998 87.5781 16.3635Z" fill="#263238"/>
<g opacity="0.3">
<path opacity="0.3" d="M88.071 17.9453C88.071 18.5999 88.1806 19.1453 88.2349 19.7453C88.2349 19.7999 88.2349 19.8544 88.2902 19.9089C88.3445 20.0726 88.5094 20.018 88.6743 20.018C88.7839 20.018 88.8381 20.018 88.8934 19.9635C88.8934 19.9089 88.8934 19.8544 88.8934 19.7999C88.5647 19.1999 88.3445 18.5999 88.071 17.9453Z" fill="black"/>
</g>
<path d="M80.8315 19.1999L81.8186 20.1272L83.409 21.6545L86.1506 21.4908L83.9026 19.0908L80.8315 19.1999Z" fill="#263238"/>
<path d="M81.2712 19.1999C81.2712 19.1999 80.5583 19.5272 81.2712 20.0181C81.9841 20.5635 82.9713 20.7817 83.1358 21.1635C83.2455 21.3817 83.1906 21.6545 83.0261 21.8181L85.1101 21.709C85.1101 21.709 85.7133 21.1635 85.274 20.7272C84.8357 20.2363 83.5745 19.5817 83.4648 19.4181C83.3002 19.2545 83.6842 19.0908 83.6842 19.0908L81.2712 19.1999Z" fill="#E0E0E0"/>
<path d="M81.929 19.1456L81.8193 19.091L82.971 18.9819V19.091L81.929 19.1456Z" fill="#455A64"/>
<path d="M83.2997 19.4727C83.1901 19.4727 83.1353 19.5272 83.0256 19.5272C82.861 19.5272 82.5868 19.5817 82.3675 19.5817C82.0933 19.5817 81.8739 19.5817 81.6545 19.5817C81.5449 19.5817 81.4353 19.5817 81.3804 19.5817C81.4901 19.5817 81.5449 19.5817 81.6545 19.5817C81.8191 19.5817 82.0933 19.5817 82.3127 19.5272L82.9707 19.4727C83.0804 19.4727 83.1901 19.4727 83.2997 19.4727Z" fill="#FAFAFA"/>
<path d="M83.519 19.8001C83.19 19.8547 82.9158 19.8547 82.5868 19.8547C82.2578 19.8547 81.9835 19.9092 81.6545 19.8547C81.9835 19.8001 82.2578 19.8001 82.5868 19.8001C82.9158 19.8001 83.19 19.7456 83.519 19.8001Z" fill="#FAFAFA"/>
<path d="M84.0127 20.0181C83.903 20.0181 83.8482 20.0726 83.7385 20.0726C83.574 20.0726 83.3546 20.1272 83.0805 20.1272C82.8062 20.1272 82.5868 20.1817 82.4224 20.1817C82.3127 20.1817 82.2579 20.1817 82.1482 20.1817C82.2579 20.1817 82.3127 20.1817 82.4224 20.1272L83.0805 20.0726L83.7385 20.0181C83.7933 20.0181 83.903 20.0181 84.0127 20.0181Z" fill="#FAFAFA"/>
<path d="M84.3417 20.3999C84.0674 20.4544 83.848 20.4544 83.5739 20.509C83.2997 20.5635 83.0255 20.5635 82.8062 20.5635C83.0803 20.509 83.2997 20.509 83.5739 20.4544C83.7932 20.3999 84.0674 20.3999 84.3417 20.3999Z" fill="#FAFAFA"/>
<path d="M84.8358 20.7271C84.5613 20.7816 84.342 20.8361 84.0678 20.8361C83.7936 20.8907 83.5742 20.8906 83.3 20.8906C83.5742 20.836 83.7936 20.7816 84.0678 20.7816C84.2871 20.727 84.5613 20.7271 84.8358 20.7271Z" fill="#FAFAFA"/>
<path d="M85.0558 21.1636C85.0005 21.1636 84.8909 21.2181 84.8356 21.2181C84.6717 21.2181 84.5069 21.2727 84.2876 21.2727C84.0682 21.2727 83.9037 21.2727 83.7391 21.2727C83.6844 21.2727 83.5747 21.2727 83.5198 21.2727C83.5747 21.2727 83.6844 21.2727 83.7391 21.2727H84.2876L84.8356 21.2181C84.8909 21.1636 85.0005 21.1636 85.0558 21.1636Z" fill="#FAFAFA"/>
<path d="M86.755 21.2724L86.2614 21.2179L84.342 21.2724C84.342 21.2724 84.2323 21.2179 84.342 21.1633C84.3968 21.1633 85.1102 20.9451 85.1102 20.9451L84.0679 20.9997C84.1776 20.836 84.2871 20.6724 84.4517 20.5633C84.7262 20.3997 85.1645 20.2906 85.1645 20.2906L84.8358 20.0724C84.8358 20.0724 85.8231 19.9633 85.9869 20.0724C86.0965 20.1815 86.2614 20.3451 86.2614 20.3451H86.8093" fill="#FFBE9D"/>
<path d="M85.3837 20.8906C85.3837 20.8906 85.0549 20.8906 84.7262 20.9452C84.342 20.9997 84.0679 20.9997 84.0679 20.9997C84.1227 20.9997 84.1776 20.9452 84.2323 20.9452C84.342 20.9452 84.507 20.8906 84.7262 20.8906C84.8901 20.8906 85.1102 20.8906 85.2198 20.8906C85.2198 20.8906 85.3294 20.8906 85.3837 20.8906Z" fill="#EB996E"/>
<path d="M85.3294 20.6729C85.1645 20.7274 84.9453 20.7819 84.7261 20.7819C84.507 20.8365 84.3421 20.8365 84.1228 20.8365C84.2873 20.7819 84.507 20.7274 84.7261 20.7274C84.9453 20.6729 85.1102 20.6729 85.3294 20.6729Z" fill="#EB996E"/>
</svg>
