<svg width="30" height="30" viewBox="0 0 60 60" fill="none" xmlns="http://www.w3.org/2000/svg">
<path d="M35.1656 20.4161H44.1124V22.5867H35.1656V20.4161ZM26.2008 29.0042C28.1785 28.0579 29.2145 26.6184 29.2145 24.394C29.2145 19.9946 25.9407 18.9272 22.1602 18.9272H11.7559V41.0095H22.4517C26.4609 41.0095 30.2235 39.0811 30.2235 34.5965C30.2235 31.825 28.914 29.7755 26.2008 29.0042V29.0042ZM16.6082 22.6943H21.1601C22.9136 22.6943 24.4877 23.1832 24.4877 25.2192C24.4877 27.0937 23.2634 27.8472 21.5278 27.8472H16.6082V22.6943ZM21.788 37.2604H16.6037V31.1792H21.8911C24.0258 31.1792 25.3757 32.0717 25.3757 34.3319C25.3757 36.5563 23.7657 37.2604 21.788 37.2604V37.2604ZM47.6104 33.2466C47.6104 28.5154 44.8434 24.5734 39.8386 24.5734C34.9727 24.5734 31.6631 28.2373 31.6631 33.0403C31.6631 38.0183 34.7978 41.4356 39.8386 41.4356C43.655 41.4356 46.126 39.7179 47.3144 36.054H43.4442C43.0226 37.4218 41.3095 38.1394 39.9776 38.1394C37.4034 38.1394 36.058 36.6325 36.058 34.0718H47.579C47.5925 33.8072 47.6104 33.5292 47.6104 33.2466V33.2466ZM36.058 31.3003C36.197 29.197 37.6007 27.883 39.6995 27.883C41.906 27.883 43.0092 29.1791 43.202 31.3003H36.058Z" fill="white"/>
</svg>
