<svg width="512" height="512" viewBox="0 0 512 512" fill="none" xmlns="http://www.w3.org/2000/svg">
<path d="M472.748 207.375H442.876C442.358 207.375 441.915 207.016 441.774 206.484C437.422 190.121 430.89 174.373 422.36 159.675C422.081 159.195 422.141 158.626 422.509 158.26L443.648 137.121C453.103 127.665 453.103 112.279 443.648 102.823L409.179 68.3541C399.721 58.8977 384.337 58.8996 374.881 68.3541L353.74 89.4933C353.375 89.8605 352.804 89.9189 352.326 89.6402C337.627 81.1101 321.878 74.5787 305.516 70.2266C304.984 70.0844 304.626 69.6419 304.626 69.1242V39.2534C304.626 25.8798 293.746 15 280.373 15H231.628C218.254 15 207.375 25.8798 207.375 39.2534V69.1251C207.375 69.6429 207.017 70.0853 206.485 70.2275C190.122 74.5796 174.373 81.112 159.675 89.6411C159.194 89.9198 158.627 89.8595 158.26 89.4933L137.12 68.3532C127.664 58.8977 112.278 58.8967 102.822 68.3532L68.3541 102.822C63.7732 107.403 61.2503 113.493 61.2503 119.971C61.2503 126.45 63.7732 132.54 68.3541 137.121L89.4933 158.26C89.8605 158.627 89.9198 159.196 89.6411 159.675C81.1111 174.374 74.5787 190.123 70.2275 206.484C70.0853 207.017 69.6429 207.375 69.1251 207.375H39.2534C25.8798 207.375 15 218.254 15 231.628V280.373C15 293.746 25.8798 304.626 39.2525 304.626H69.1242C69.6419 304.626 70.0853 304.984 70.2266 305.516C74.5777 321.878 81.1101 337.626 89.6402 352.325C89.9189 352.805 89.8595 353.374 89.4924 353.74L68.3541 374.88C63.7732 379.46 61.2503 385.551 61.2503 392.03C61.2503 398.508 63.7732 404.598 68.3541 409.179L102.822 443.648C112.279 453.104 127.664 453.104 137.12 443.648L158.26 422.508C158.627 422.14 159.195 422.081 159.675 422.36C174.373 430.89 190.122 437.421 206.485 441.773C207.017 441.916 207.375 442.358 207.375 442.876V472.748C207.375 486.121 218.255 497.001 231.628 497.001H280.373C293.746 497.001 304.626 486.121 304.626 472.748V442.876C304.626 442.358 304.984 441.916 305.516 441.773C321.879 437.421 337.628 430.889 352.326 422.36C352.804 422.081 353.375 422.14 353.74 422.508L374.88 443.648C384.337 453.103 399.722 453.104 409.18 443.647L411.639 441.187C414.391 438.433 414.39 433.969 411.637 431.217C408.883 428.464 404.42 428.464 401.666 431.218L399.209 433.677C395.248 437.637 388.808 437.635 384.85 433.677L363.71 412.538C358.834 407.661 351.243 406.685 345.248 410.165C331.631 418.067 317.044 424.117 301.891 428.148C295.199 429.927 290.525 435.984 290.525 442.877V472.748C290.525 478.347 285.97 482.902 280.372 482.902H231.627C226.029 482.902 221.474 478.347 221.474 472.748V442.877C221.474 435.985 216.8 429.928 210.108 428.148C194.955 424.117 180.368 418.067 166.752 410.165C160.757 406.685 153.165 407.662 148.289 412.538L127.149 433.678C123.19 437.636 116.749 437.637 112.79 433.678L78.3226 399.21C76.405 397.292 75.3487 394.743 75.3487 392.031C75.3487 389.318 76.405 386.769 78.3226 384.851L99.4619 363.712C104.338 358.837 105.314 351.243 101.835 345.249C93.933 331.633 87.8826 317.046 83.8524 301.893C82.0722 295.201 76.0153 290.526 69.1232 290.526H39.2534C33.6558 290.526 29.1013 285.972 29.1013 280.373V231.628C29.1013 226.031 33.6558 221.476 39.2534 221.476H69.1251C76.0171 221.476 82.0741 216.802 83.8543 210.109C87.8845 194.957 93.9339 180.37 101.837 166.753C105.316 160.76 104.34 153.166 99.4638 148.291L78.3236 127.15C76.4059 125.232 75.3497 122.683 75.3497 119.97C75.3497 117.258 76.4059 114.709 78.3236 112.791L112.791 78.3226C116.75 74.364 123.19 74.365 127.15 78.3226L148.29 99.4628C153.166 104.339 160.758 105.315 166.753 101.836C180.369 93.9339 194.956 87.8835 210.108 83.8534C216.801 82.0732 221.475 76.0171 221.475 69.1242V39.2534C221.475 33.6549 226.03 29.1004 231.628 29.1004H280.373C285.971 29.1004 290.526 33.6549 290.526 39.2534V69.1251C290.526 76.0171 295.2 82.0741 301.892 83.8543C317.045 87.8845 331.632 93.9349 345.248 101.837C351.24 105.316 358.835 104.341 363.711 99.4638L384.851 78.3236C388.81 74.365 395.25 74.365 399.209 78.3236L433.676 112.792C437.635 116.751 437.635 123.192 433.676 127.15L412.537 148.29C407.662 153.165 406.686 160.759 410.165 166.753C418.066 180.368 424.117 194.955 428.147 210.109C429.928 216.801 435.984 221.475 442.876 221.475H472.748C478.345 221.475 482.9 226.03 482.9 231.628V280.373C482.9 285.971 478.345 290.526 472.748 290.526H442.876C435.984 290.526 429.928 295.2 428.147 301.892C424.117 317.045 418.066 331.632 410.165 345.248C406.685 351.241 407.662 358.835 412.537 363.71L433.676 384.85C437.635 388.808 437.635 395.249 433.676 399.208L424.961 407.923C422.208 410.676 422.208 415.141 424.961 417.894C427.715 420.646 432.178 420.647 434.932 417.894L443.648 409.178C453.103 399.722 453.103 384.336 443.648 374.88L422.509 353.741C422.141 353.374 422.082 352.805 422.36 352.326C430.89 337.628 437.422 321.879 441.774 305.517C441.915 304.984 442.358 304.626 442.876 304.626H472.748C486.12 304.626 497 293.746 497 280.373V231.628C496.999 218.254 486.119 207.375 472.748 207.375V207.375Z" fill="#F7931E"/>
<path d="M169.201 139.531C172.321 137.202 172.962 132.784 170.633 129.663C168.303 126.543 163.886 125.902 160.765 128.231C141.303 142.76 125.174 161.833 114.121 183.391C102.531 205.997 96.6533 230.425 96.6533 256C96.6533 343.864 168.136 415.347 256 415.347C343.866 415.347 415.349 343.864 415.349 256C415.349 168.135 343.866 96.6523 256 96.6523C232.955 96.6523 210.721 101.467 189.915 110.962C186.372 112.578 184.811 116.761 186.428 120.302C188.044 123.845 192.227 125.405 195.768 123.789C214.724 115.139 234.989 110.753 256 110.753C336.091 110.753 401.248 175.91 401.248 256C401.248 336.089 336.091 401.247 256 401.247C175.911 401.247 110.754 336.09 110.754 256C110.754 232.685 116.108 210.42 126.668 189.825C136.746 170.171 151.454 152.78 169.201 139.531V139.531Z" fill="#F7931E"/>
<path d="M309.207 261.093C312.537 263.114 316.872 262.054 318.893 258.726C325.846 247.273 329.523 234.103 329.523 220.641C329.523 201.21 322.013 182.888 308.379 169.047C294.758 155.223 276.581 147.439 257.192 147.131C216.621 146.466 183.143 178.923 182.493 219.437C182.153 240.629 190.974 260.939 206.695 275.158C215.77 283.366 221.124 295.092 221.124 307.332V343.782C221.124 355.415 230.589 364.88 242.223 364.88H269.782C281.417 364.88 290.882 355.415 290.882 343.782C290.882 343.782 290.882 307.821 290.882 307.334C290.882 299.007 293.458 290.859 298.049 283.771C300.165 280.502 299.231 276.138 295.962 274.021C292.697 271.906 288.33 272.839 286.212 276.108C281.44 283.477 278.437 291.725 277.371 300.284H263.053V259.593H268.438C272.331 259.593 275.488 256.436 275.488 252.542C275.488 248.649 272.332 245.492 268.438 245.492H243.568C239.674 245.492 236.517 248.649 236.517 252.542C236.517 256.436 239.674 259.593 243.568 259.593H248.952V300.284H234.638C232.95 286.677 226.422 273.989 216.154 264.702C203.447 253.209 196.316 236.793 196.591 219.665C197.117 186.923 224.228 160.708 256.968 161.232C272.634 161.48 287.325 167.771 298.334 178.945C309.353 190.13 315.422 204.939 315.422 220.643C315.422 231.524 312.454 242.163 306.84 251.411C304.819 254.736 305.879 259.073 309.207 261.093V261.093ZM235.224 314.384H276.78V343.782C276.78 347.64 273.64 350.78 269.781 350.78H242.222C238.363 350.78 235.224 347.64 235.224 343.782V314.384Z" fill="#F7931E"/>
</svg>
