<svg width="512" height="512" viewBox="0 0 512 512" fill="none" xmlns="http://www.w3.org/2000/svg">
<path d="M171 233.5C136.53 233.5 108.5 261.53 108.5 296V358.5H75C37.7867 358.5 7.5 328.213 7.5 291V221C7.5 183.787 37.7867 153.5 75 153.5H256C268.427 153.5 278.5 143.427 278.5 131C278.5 118.573 268.427 108.5 256 108.5H153.5V75C153.5 37.7867 183.787 7.5 221 7.5H291C328.213 7.5 358.5 37.7867 358.5 75V216C358.5 225.643 350.643 233.5 341 233.5H171ZM198.5 61C198.5 73.4273 208.573 83.5 221 83.5C233.427 83.5 243.5 73.4273 243.5 61C243.5 48.5727 233.427 38.5 221 38.5C208.573 38.5 198.5 48.5727 198.5 61Z" stroke="#F7931E" stroke-width="15" stroke-linecap="round" stroke-linejoin="round"/>
<path d="M403.5 216V153.5H437C474.213 153.5 504.5 183.787 504.5 221V291C504.5 328.213 474.213 358.5 437 358.5H256C243.573 358.5 233.5 368.573 233.5 381C233.5 393.427 243.573 403.5 256 403.5H358.5V437C358.5 474.213 328.213 504.5 291 504.5H221C183.787 504.5 153.5 474.213 153.5 437V296C153.5 286.357 161.357 278.5 171 278.5H341C375.47 278.5 403.5 250.47 403.5 216ZM313.5 451C313.5 438.573 303.427 428.5 291 428.5C278.573 428.5 268.5 438.573 268.5 451C268.5 463.427 278.573 473.5 291 473.5C303.427 473.5 313.5 463.427 313.5 451Z" stroke="#F7931E" stroke-width="15" stroke-linecap="round" stroke-linejoin="round"/>
</svg>
